{
		"nodes":  [
		{"id": "Dark Iron Dwarf", "group": 37, "weight": 797},
		 {"id": "Flame Imp", "group": 37, "weight": 2466},
		 {"id": "Defender of Argus", "group": 2, "weight": 2077},
		 {"id": "Mortal Coil", "group": 37, "weight": 1066},
		 {"id": "Doomsayer", "group": 2, "weight": 346},
		 {"id": "Voidwalker", "group": 2, "weight": 2655},
		 {"id": "Argent Horserider", "group": 2, "weight": 344},
		 {"id": "Acidic Swamp Ooze", "group": 2, "weight": 439},
		 {"id": "Siphon Soul", "group": 2, "weight": 335},
		 {"id": "Bilefin Tidehunter", "group": 2, "weight": 249},
		 {"id": "Shadow Bolt", "group": 2, "weight": 464},
		 {"id": "Flame Juggler", "group": 37, "weight": 289},
		 {"id": "Refreshment Vendor", "group": 2, "weight": 341},
		 {"id": "Sea Giant", "group": 2, "weight": 699},
		 {"id": "Shadowflame", "group": 2, "weight": 308},
		 {"id": "Leeroy Jenkins", "group": 37, "weight": 389},
		 {"id": "Earthen Ring Farseer", "group": 37, "weight": 422},
		 {"id": "Soulfire", "group": 2, "weight": 963},
		 {"id": "Demonwrath", "group": 2, "weight": 307},
		 {"id": "Sylvanas Windrunner", "group": 2, "weight": 282},
		 {"id": "Dire Wolf Alpha", "group": 2, "weight": 2133},
		 {"id": "Dark Peddler", "group": 21, "weight": 2964},
		 {"id": "Argent Squire", "group": 2, "weight": 1624},
		 {"id": "Knife Juggler", "group": 37, "weight": 2172},
		 {"id": "Sunfury Protector", "group": 2, "weight": 273},
		 {"id": "Darkshire Councilman", "group": 2, "weight": 2130},
		 {"id": "Abusive Sergeant", "group": 37, "weight": 2367},
		 {"id": "Power Overwhelming", "group": 2, "weight": 1887},
		 {"id": "Forbidden Ritual", "group": 2, "weight": 1688},
		 {"id": "Brann Bronzebeard", "group": 2, "weight": 598},
		 {"id": "Possessed Villager", "group": 2, "weight": 2675},
		 {"id": "Imp Gang Boss", "group": 2, "weight": 2520},
		 {"id": "Hellfire", "group": 2, "weight": 447},
		 {"id": "Emperor Thaurissan", "group": 2, "weight": 308},
		 {"id": "Reno Jackson", "group": 2, "weight": 356},
		 {"id": "Twilight Drake", "group": 2, "weight": 474},
		 {"id": "Doomguard", "group": 2, "weight": 1056},
		 {"id": "Crazed Alchemist", "group": 2, "weight": 408}
	],
	"links": [
		{"source": "Dark Iron Dwarf", "target": "Flame Imp", "value": 587},
		 {"source": "Dark Iron Dwarf", "target": "Defender of Argus", "value": 440},
		 {"source": "Dark Iron Dwarf", "target": "Mortal Coil", "value": 137},
		 {"source": "Dark Iron Dwarf", "target": "Voidwalker", "value": 598},
		 {"source": "Dark Iron Dwarf", "target": "Argent Horserider", "value": 68},
		 {"source": "Dark Iron Dwarf", "target": "Acidic Swamp Ooze", "value": 55},
		 {"source": "Dark Iron Dwarf", "target": "Bilefin Tidehunter", "value": 48},
		 {"source": "Dark Iron Dwarf", "target": "Flame Juggler", "value": 59},
		 {"source": "Dark Iron Dwarf", "target": "Sea Giant", "value": 185},
		 {"source": "Dark Iron Dwarf", "target": "Leeroy Jenkins", "value": 67},
		 {"source": "Dark Iron Dwarf", "target": "Soulfire", "value": 189},
		 {"source": "Dark Iron Dwarf", "target": "Dire Wolf Alpha", "value": 530},
		 {"source": "Dark Iron Dwarf", "target": "Dark Peddler", "value": 585},
		 {"source": "Dark Iron Dwarf", "target": "Argent Squire", "value": 408},
		 {"source": "Dark Iron Dwarf", "target": "Knife Juggler", "value": 544},
		 {"source": "Dark Iron Dwarf", "target": "Darkshire Councilman", "value": 538},
		 {"source": "Dark Iron Dwarf", "target": "Abusive Sergeant", "value": 582},
		 {"source": "Dark Iron Dwarf", "target": "Power Overwhelming", "value": 413},
		 {"source": "Dark Iron Dwarf", "target": "Forbidden Ritual", "value": 430},
		 {"source": "Dark Iron Dwarf", "target": "Brann Bronzebeard", "value": 80},
		 {"source": "Dark Iron Dwarf", "target": "Possessed Villager", "value": 607},
		 {"source": "Dark Iron Dwarf", "target": "Imp Gang Boss", "value": 508},
		 {"source": "Dark Iron Dwarf", "target": "Doomguard", "value": 283},
		 {"source": "Dark Iron Dwarf", "target": "Crazed Alchemist", "value": 95},
		 {"source": "Flame Imp", "target": "Dark Iron Dwarf", "value": 587},
		 {"source": "Flame Imp", "target": "Defender of Argus", "value": 1265},
		 {"source": "Flame Imp", "target": "Mortal Coil", "value": 451},
		 {"source": "Flame Imp", "target": "Voidwalker", "value": 1783},
		 {"source": "Flame Imp", "target": "Argent Horserider", "value": 228},
		 {"source": "Flame Imp", "target": "Acidic Swamp Ooze", "value": 120},
		 {"source": "Flame Imp", "target": "Bilefin Tidehunter", "value": 159},
		 {"source": "Flame Imp", "target": "Flame Juggler", "value": 203},
		 {"source": "Flame Imp", "target": "Sea Giant", "value": 470},
		 {"source": "Flame Imp", "target": "Leeroy Jenkins", "value": 233},
		 {"source": "Flame Imp", "target": "Soulfire", "value": 627},
		 {"source": "Flame Imp", "target": "Dire Wolf Alpha", "value": 1508},
		 {"source": "Flame Imp", "target": "Dark Peddler", "value": 1748},
		 {"source": "Flame Imp", "target": "Argent Squire", "value": 1104},
		 {"source": "Flame Imp", "target": "Knife Juggler", "value": 1537},
		 {"source": "Flame Imp", "target": "Darkshire Councilman", "value": 1480},
		 {"source": "Flame Imp", "target": "Abusive Sergeant", "value": 1637},
		 {"source": "Flame Imp", "target": "Power Overwhelming", "value": 1150},
		 {"source": "Flame Imp", "target": "Forbidden Ritual", "value": 1166},
		 {"source": "Flame Imp", "target": "Brann Bronzebeard", "value": 199},
		 {"source": "Flame Imp", "target": "Possessed Villager", "value": 1729},
		 {"source": "Flame Imp", "target": "Imp Gang Boss", "value": 1471},
		 {"source": "Flame Imp", "target": "Doomguard", "value": 760},
		 {"source": "Flame Imp", "target": "Crazed Alchemist", "value": 292},
		 {"source": "Defender of Argus", "target": "Dark Iron Dwarf", "value": 440},
		 {"source": "Defender of Argus", "target": "Flame Imp", "value": 1265},
		 {"source": "Defender of Argus", "target": "Mortal Coil", "value": 513},
		 {"source": "Defender of Argus", "target": "Doomsayer", "value": 124},
		 {"source": "Defender of Argus", "target": "Voidwalker", "value": 1356},
		 {"source": "Defender of Argus", "target": "Argent Horserider", "value": 188},
		 {"source": "Defender of Argus", "target": "Acidic Swamp Ooze", "value": 193},
		 {"source": "Defender of Argus", "target": "Siphon Soul", "value": 130},
		 {"source": "Defender of Argus", "target": "Bilefin Tidehunter", "value": 117},
		 {"source": "Defender of Argus", "target": "Shadow Bolt", "value": 170},
		 {"source": "Defender of Argus", "target": "Flame Juggler", "value": 134},
		 {"source": "Defender of Argus", "target": "Refreshment Vendor", "value": 144},
		 {"source": "Defender of Argus", "target": "Sea Giant", "value": 400},
		 {"source": "Defender of Argus", "target": "Shadowflame", "value": 138},
		 {"source": "Defender of Argus", "target": "Leeroy Jenkins", "value": 205},
		 {"source": "Defender of Argus", "target": "Earthen Ring Farseer", "value": 176},
		 {"source": "Defender of Argus", "target": "Soulfire", "value": 475},
		 {"source": "Defender of Argus", "target": "Demonwrath", "value": 125},
		 {"source": "Defender of Argus", "target": "Sylvanas Windrunner", "value": 134},
		 {"source": "Defender of Argus", "target": "Dire Wolf Alpha", "value": 1131},
		 {"source": "Defender of Argus", "target": "Dark Peddler", "value": 1473},
		 {"source": "Defender of Argus", "target": "Argent Squire", "value": 884},
		 {"source": "Defender of Argus", "target": "Knife Juggler", "value": 1158},
		 {"source": "Defender of Argus", "target": "Sunfury Protector", "value": 115},
		 {"source": "Defender of Argus", "target": "Darkshire Councilman", "value": 1157},
		 {"source": "Defender of Argus", "target": "Abusive Sergeant", "value": 1262},
		 {"source": "Defender of Argus", "target": "Power Overwhelming", "value": 1029},
		 {"source": "Defender of Argus", "target": "Forbidden Ritual", "value": 919},
		 {"source": "Defender of Argus", "target": "Brann Bronzebeard", "value": 322},
		 {"source": "Defender of Argus", "target": "Possessed Villager", "value": 1407},
		 {"source": "Defender of Argus", "target": "Imp Gang Boss", "value": 1312},
		 {"source": "Defender of Argus", "target": "Hellfire", "value": 180},
		 {"source": "Defender of Argus", "target": "Emperor Thaurissan", "value": 137},
		 {"source": "Defender of Argus", "target": "Reno Jackson", "value": 163},
		 {"source": "Defender of Argus", "target": "Twilight Drake", "value": 193},
		 {"source": "Defender of Argus", "target": "Doomguard", "value": 556},
		 {"source": "Defender of Argus", "target": "Crazed Alchemist", "value": 242},
		 {"source": "Mortal Coil", "target": "Dark Iron Dwarf", "value": 137},
		 {"source": "Mortal Coil", "target": "Flame Imp", "value": 451},
		 {"source": "Mortal Coil", "target": "Defender of Argus", "value": 513},
		 {"source": "Mortal Coil", "target": "Doomsayer", "value": 185},
		 {"source": "Mortal Coil", "target": "Voidwalker", "value": 502},
		 {"source": "Mortal Coil", "target": "Argent Horserider", "value": 77},
		 {"source": "Mortal Coil", "target": "Acidic Swamp Ooze", "value": 186},
		 {"source": "Mortal Coil", "target": "Siphon Soul", "value": 196},
		 {"source": "Mortal Coil", "target": "Bilefin Tidehunter", "value": 55},
		 {"source": "Mortal Coil", "target": "Shadow Bolt", "value": 243},
		 {"source": "Mortal Coil", "target": "Flame Juggler", "value": 52},
		 {"source": "Mortal Coil", "target": "Refreshment Vendor", "value": 193},
		 {"source": "Mortal Coil", "target": "Sea Giant", "value": 113},
		 {"source": "Mortal Coil", "target": "Shadowflame", "value": 170},
		 {"source": "Mortal Coil", "target": "Leeroy Jenkins", "value": 110},
		 {"source": "Mortal Coil", "target": "Earthen Ring Farseer", "value": 241},
		 {"source": "Mortal Coil", "target": "Soulfire", "value": 227},
		 {"source": "Mortal Coil", "target": "Demonwrath", "value": 175},
		 {"source": "Mortal Coil", "target": "Sylvanas Windrunner", "value": 166},
		 {"source": "Mortal Coil", "target": "Dire Wolf Alpha", "value": 395},
		 {"source": "Mortal Coil", "target": "Dark Peddler", "value": 799},
		 {"source": "Mortal Coil", "target": "Argent Squire", "value": 277},
		 {"source": "Mortal Coil", "target": "Knife Juggler", "value": 396},
		 {"source": "Mortal Coil", "target": "Sunfury Protector", "value": 163},
		 {"source": "Mortal Coil", "target": "Darkshire Councilman", "value": 402},
		 {"source": "Mortal Coil", "target": "Abusive Sergeant", "value": 468},
		 {"source": "Mortal Coil", "target": "Power Overwhelming", "value": 463},
		 {"source": "Mortal Coil", "target": "Forbidden Ritual", "value": 302},
		 {"source": "Mortal Coil", "target": "Brann Bronzebeard", "value": 224},
		 {"source": "Mortal Coil", "target": "Possessed Villager", "value": 552},
		 {"source": "Mortal Coil", "target": "Imp Gang Boss", "value": 605},
		 {"source": "Mortal Coil", "target": "Hellfire", "value": 232},
		 {"source": "Mortal Coil", "target": "Emperor Thaurissan", "value": 182},
		 {"source": "Mortal Coil", "target": "Reno Jackson", "value": 199},
		 {"source": "Mortal Coil", "target": "Twilight Drake", "value": 260},
		 {"source": "Mortal Coil", "target": "Doomguard", "value": 166},
		 {"source": "Mortal Coil", "target": "Crazed Alchemist", "value": 98},
		 {"source": "Doomsayer", "target": "Defender of Argus", "value": 124},
		 {"source": "Doomsayer", "target": "Mortal Coil", "value": 185},
		 {"source": "Doomsayer", "target": "Acidic Swamp Ooze", "value": 124},
		 {"source": "Doomsayer", "target": "Siphon Soul", "value": 143},
		 {"source": "Doomsayer", "target": "Shadow Bolt", "value": 169},
		 {"source": "Doomsayer", "target": "Refreshment Vendor", "value": 144},
		 {"source": "Doomsayer", "target": "Shadowflame", "value": 117},
		 {"source": "Doomsayer", "target": "Earthen Ring Farseer", "value": 159},
		 {"source": "Doomsayer", "target": "Demonwrath", "value": 132},
		 {"source": "Doomsayer", "target": "Sylvanas Windrunner", "value": 118},
		 {"source": "Doomsayer", "target": "Dark Peddler", "value": 213},
		 {"source": "Doomsayer", "target": "Sunfury Protector", "value": 109},
		 {"source": "Doomsayer", "target": "Power Overwhelming", "value": 99},
		 {"source": "Doomsayer", "target": "Brann Bronzebeard", "value": 128},
		 {"source": "Doomsayer", "target": "Possessed Villager", "value": 58},
		 {"source": "Doomsayer", "target": "Imp Gang Boss", "value": 150},
		 {"source": "Doomsayer", "target": "Hellfire", "value": 152},
		 {"source": "Doomsayer", "target": "Emperor Thaurissan", "value": 131},
		 {"source": "Doomsayer", "target": "Reno Jackson", "value": 156},
		 {"source": "Doomsayer", "target": "Twilight Drake", "value": 174},
		 {"source": "Voidwalker", "target": "Dark Iron Dwarf", "value": 598},
		 {"source": "Voidwalker", "target": "Flame Imp", "value": 1783},
		 {"source": "Voidwalker", "target": "Defender of Argus", "value": 1356},
		 {"source": "Voidwalker", "target": "Mortal Coil", "value": 502},
		 {"source": "Voidwalker", "target": "Argent Horserider", "value": 242},
		 {"source": "Voidwalker", "target": "Acidic Swamp Ooze", "value": 146},
		 {"source": "Voidwalker", "target": "Siphon Soul", "value": 56},
		 {"source": "Voidwalker", "target": "Bilefin Tidehunter", "value": 167},
		 {"source": "Voidwalker", "target": "Shadow Bolt", "value": 71},
		 {"source": "Voidwalker", "target": "Flame Juggler", "value": 202},
		 {"source": "Voidwalker", "target": "Sea Giant", "value": 526},
		 {"source": "Voidwalker", "target": "Shadowflame", "value": 63},
		 {"source": "Voidwalker", "target": "Leeroy Jenkins", "value": 250},
		 {"source": "Voidwalker", "target": "Earthen Ring Farseer", "value": 48},
		 {"source": "Voidwalker", "target": "Soulfire", "value": 646},
		 {"source": "Voidwalker", "target": "Dire Wolf Alpha", "value": 1577},
		 {"source": "Voidwalker", "target": "Dark Peddler", "value": 1875},
		 {"source": "Voidwalker", "target": "Argent Squire", "value": 1148},
		 {"source": "Voidwalker", "target": "Knife Juggler", "value": 1607},
		 {"source": "Voidwalker", "target": "Darkshire Councilman", "value": 1571},
		 {"source": "Voidwalker", "target": "Abusive Sergeant", "value": 1714},
		 {"source": "Voidwalker", "target": "Power Overwhelming", "value": 1290},
		 {"source": "Voidwalker", "target": "Forbidden Ritual", "value": 1262},
		 {"source": "Voidwalker", "target": "Brann Bronzebeard", "value": 259},
		 {"source": "Voidwalker", "target": "Possessed Villager", "value": 1841},
		 {"source": "Voidwalker", "target": "Imp Gang Boss", "value": 1597},
		 {"source": "Voidwalker", "target": "Hellfire", "value": 91},
		 {"source": "Voidwalker", "target": "Reno Jackson", "value": 54},
		 {"source": "Voidwalker", "target": "Twilight Drake", "value": 49},
		 {"source": "Voidwalker", "target": "Doomguard", "value": 805},
		 {"source": "Voidwalker", "target": "Crazed Alchemist", "value": 309},
		 {"source": "Argent Horserider", "target": "Dark Iron Dwarf", "value": 68},
		 {"source": "Argent Horserider", "target": "Flame Imp", "value": 228},
		 {"source": "Argent Horserider", "target": "Defender of Argus", "value": 188},
		 {"source": "Argent Horserider", "target": "Mortal Coil", "value": 77},
		 {"source": "Argent Horserider", "target": "Voidwalker", "value": 242},
		 {"source": "Argent Horserider", "target": "Soulfire", "value": 117},
		 {"source": "Argent Horserider", "target": "Dire Wolf Alpha", "value": 209},
		 {"source": "Argent Horserider", "target": "Dark Peddler", "value": 237},
		 {"source": "Argent Horserider", "target": "Argent Squire", "value": 122},
		 {"source": "Argent Horserider", "target": "Knife Juggler", "value": 176},
		 {"source": "Argent Horserider", "target": "Darkshire Councilman", "value": 187},
		 {"source": "Argent Horserider", "target": "Abusive Sergeant", "value": 246},
		 {"source": "Argent Horserider", "target": "Power Overwhelming", "value": 154},
		 {"source": "Argent Horserider", "target": "Forbidden Ritual", "value": 153},
		 {"source": "Argent Horserider", "target": "Brann Bronzebeard", "value": 46},
		 {"source": "Argent Horserider", "target": "Possessed Villager", "value": 229},
		 {"source": "Argent Horserider", "target": "Imp Gang Boss", "value": 192},
		 {"source": "Argent Horserider", "target": "Doomguard", "value": 90},
		 {"source": "Argent Horserider", "target": "Crazed Alchemist", "value": 46},
		 {"source": "Acidic Swamp Ooze", "target": "Dark Iron Dwarf", "value": 55},
		 {"source": "Acidic Swamp Ooze", "target": "Flame Imp", "value": 120},
		 {"source": "Acidic Swamp Ooze", "target": "Defender of Argus", "value": 193},
		 {"source": "Acidic Swamp Ooze", "target": "Mortal Coil", "value": 186},
		 {"source": "Acidic Swamp Ooze", "target": "Doomsayer", "value": 124},
		 {"source": "Acidic Swamp Ooze", "target": "Voidwalker", "value": 146},
		 {"source": "Acidic Swamp Ooze", "target": "Siphon Soul", "value": 124},
		 {"source": "Acidic Swamp Ooze", "target": "Shadow Bolt", "value": 163},
		 {"source": "Acidic Swamp Ooze", "target": "Refreshment Vendor", "value": 135},
		 {"source": "Acidic Swamp Ooze", "target": "Shadowflame", "value": 117},
		 {"source": "Acidic Swamp Ooze", "target": "Earthen Ring Farseer", "value": 148},
		 {"source": "Acidic Swamp Ooze", "target": "Soulfire", "value": 60},
		 {"source": "Acidic Swamp Ooze", "target": "Demonwrath", "value": 113},
		 {"source": "Acidic Swamp Ooze", "target": "Sylvanas Windrunner", "value": 107},
		 {"source": "Acidic Swamp Ooze", "target": "Dire Wolf Alpha", "value": 81},
		 {"source": "Acidic Swamp Ooze", "target": "Dark Peddler", "value": 271},
		 {"source": "Acidic Swamp Ooze", "target": "Argent Squire", "value": 77},
		 {"source": "Acidic Swamp Ooze", "target": "Knife Juggler", "value": 94},
		 {"source": "Acidic Swamp Ooze", "target": "Sunfury Protector", "value": 99},
		 {"source": "Acidic Swamp Ooze", "target": "Darkshire Councilman", "value": 90},
		 {"source": "Acidic Swamp Ooze", "target": "Abusive Sergeant", "value": 124},
		 {"source": "Acidic Swamp Ooze", "target": "Power Overwhelming", "value": 176},
		 {"source": "Acidic Swamp Ooze", "target": "Forbidden Ritual", "value": 86},
		 {"source": "Acidic Swamp Ooze", "target": "Brann Bronzebeard", "value": 127},
		 {"source": "Acidic Swamp Ooze", "target": "Possessed Villager", "value": 160},
		 {"source": "Acidic Swamp Ooze", "target": "Imp Gang Boss", "value": 239},
		 {"source": "Acidic Swamp Ooze", "target": "Hellfire", "value": 125},
		 {"source": "Acidic Swamp Ooze", "target": "Emperor Thaurissan", "value": 125},
		 {"source": "Acidic Swamp Ooze", "target": "Reno Jackson", "value": 146},
		 {"source": "Acidic Swamp Ooze", "target": "Twilight Drake", "value": 146},
		 {"source": "Acidic Swamp Ooze", "target": "Doomguard", "value": 54},
		 {"source": "Siphon Soul", "target": "Defender of Argus", "value": 130},
		 {"source": "Siphon Soul", "target": "Mortal Coil", "value": 196},
		 {"source": "Siphon Soul", "target": "Doomsayer", "value": 143},
		 {"source": "Siphon Soul", "target": "Voidwalker", "value": 56},
		 {"source": "Siphon Soul", "target": "Acidic Swamp Ooze", "value": 124},
		 {"source": "Siphon Soul", "target": "Shadow Bolt", "value": 184},
		 {"source": "Siphon Soul", "target": "Refreshment Vendor", "value": 134},
		 {"source": "Siphon Soul", "target": "Shadowflame", "value": 112},
		 {"source": "Siphon Soul", "target": "Earthen Ring Farseer", "value": 159},
		 {"source": "Siphon Soul", "target": "Demonwrath", "value": 131},
		 {"source": "Siphon Soul", "target": "Sylvanas Windrunner", "value": 124},
		 {"source": "Siphon Soul", "target": "Dark Peddler", "value": 205},
		 {"source": "Siphon Soul", "target": "Sunfury Protector", "value": 104},
		 {"source": "Siphon Soul", "target": "Power Overwhelming", "value": 109},
		 {"source": "Siphon Soul", "target": "Brann Bronzebeard", "value": 133},
		 {"source": "Siphon Soul", "target": "Possessed Villager", "value": 74},
		 {"source": "Siphon Soul", "target": "Imp Gang Boss", "value": 171},
		 {"source": "Siphon Soul", "target": "Hellfire", "value": 153},
		 {"source": "Siphon Soul", "target": "Emperor Thaurissan", "value": 133},
		 {"source": "Siphon Soul", "target": "Reno Jackson", "value": 166},
		 {"source": "Siphon Soul", "target": "Twilight Drake", "value": 179},
		 {"source": "Bilefin Tidehunter", "target": "Dark Iron Dwarf", "value": 48},
		 {"source": "Bilefin Tidehunter", "target": "Flame Imp", "value": 159},
		 {"source": "Bilefin Tidehunter", "target": "Defender of Argus", "value": 117},
		 {"source": "Bilefin Tidehunter", "target": "Mortal Coil", "value": 55},
		 {"source": "Bilefin Tidehunter", "target": "Voidwalker", "value": 167},
		 {"source": "Bilefin Tidehunter", "target": "Sea Giant", "value": 62},
		 {"source": "Bilefin Tidehunter", "target": "Soulfire", "value": 48},
		 {"source": "Bilefin Tidehunter", "target": "Dire Wolf Alpha", "value": 132},
		 {"source": "Bilefin Tidehunter", "target": "Dark Peddler", "value": 166},
		 {"source": "Bilefin Tidehunter", "target": "Argent Squire", "value": 66},
		 {"source": "Bilefin Tidehunter", "target": "Knife Juggler", "value": 133},
		 {"source": "Bilefin Tidehunter", "target": "Darkshire Councilman", "value": 151},
		 {"source": "Bilefin Tidehunter", "target": "Abusive Sergeant", "value": 142},
		 {"source": "Bilefin Tidehunter", "target": "Power Overwhelming", "value": 105},
		 {"source": "Bilefin Tidehunter", "target": "Forbidden Ritual", "value": 110},
		 {"source": "Bilefin Tidehunter", "target": "Brann Bronzebeard", "value": 46},
		 {"source": "Bilefin Tidehunter", "target": "Possessed Villager", "value": 161},
		 {"source": "Bilefin Tidehunter", "target": "Imp Gang Boss", "value": 119},
		 {"source": "Shadow Bolt", "target": "Defender of Argus", "value": 170},
		 {"source": "Shadow Bolt", "target": "Mortal Coil", "value": 243},
		 {"source": "Shadow Bolt", "target": "Doomsayer", "value": 169},
		 {"source": "Shadow Bolt", "target": "Voidwalker", "value": 71},
		 {"source": "Shadow Bolt", "target": "Acidic Swamp Ooze", "value": 163},
		 {"source": "Shadow Bolt", "target": "Siphon Soul", "value": 184},
		 {"source": "Shadow Bolt", "target": "Refreshment Vendor", "value": 157},
		 {"source": "Shadow Bolt", "target": "Shadowflame", "value": 139},
		 {"source": "Shadow Bolt", "target": "Earthen Ring Farseer", "value": 187},
		 {"source": "Shadow Bolt", "target": "Soulfire", "value": 54},
		 {"source": "Shadow Bolt", "target": "Demonwrath", "value": 159},
		 {"source": "Shadow Bolt", "target": "Sylvanas Windrunner", "value": 151},
		 {"source": "Shadow Bolt", "target": "Dark Peddler", "value": 281},
		 {"source": "Shadow Bolt", "target": "Sunfury Protector", "value": 148},
		 {"source": "Shadow Bolt", "target": "Power Overwhelming", "value": 147},
		 {"source": "Shadow Bolt", "target": "Brann Bronzebeard", "value": 159},
		 {"source": "Shadow Bolt", "target": "Possessed Villager", "value": 112},
		 {"source": "Shadow Bolt", "target": "Imp Gang Boss", "value": 234},
		 {"source": "Shadow Bolt", "target": "Hellfire", "value": 203},
		 {"source": "Shadow Bolt", "target": "Emperor Thaurissan", "value": 170},
		 {"source": "Shadow Bolt", "target": "Reno Jackson", "value": 196},
		 {"source": "Shadow Bolt", "target": "Twilight Drake", "value": 233},
		 {"source": "Flame Juggler", "target": "Dark Iron Dwarf", "value": 59},
		 {"source": "Flame Juggler", "target": "Flame Imp", "value": 203},
		 {"source": "Flame Juggler", "target": "Defender of Argus", "value": 134},
		 {"source": "Flame Juggler", "target": "Mortal Coil", "value": 52},
		 {"source": "Flame Juggler", "target": "Voidwalker", "value": 202},
		 {"source": "Flame Juggler", "target": "Sea Giant", "value": 57},
		 {"source": "Flame Juggler", "target": "Soulfire", "value": 60},
		 {"source": "Flame Juggler", "target": "Dire Wolf Alpha", "value": 181},
		 {"source": "Flame Juggler", "target": "Dark Peddler", "value": 204},
		 {"source": "Flame Juggler", "target": "Argent Squire", "value": 134},
		 {"source": "Flame Juggler", "target": "Knife Juggler", "value": 169},
		 {"source": "Flame Juggler", "target": "Darkshire Councilman", "value": 182},
		 {"source": "Flame Juggler", "target": "Abusive Sergeant", "value": 186},
		 {"source": "Flame Juggler", "target": "Power Overwhelming", "value": 130},
		 {"source": "Flame Juggler", "target": "Forbidden Ritual", "value": 143},
		 {"source": "Flame Juggler", "target": "Possessed Villager", "value": 199},
		 {"source": "Flame Juggler", "target": "Imp Gang Boss", "value": 164},
		 {"source": "Flame Juggler", "target": "Doomguard", "value": 78},
		 {"source": "Refreshment Vendor", "target": "Defender of Argus", "value": 144},
		 {"source": "Refreshment Vendor", "target": "Mortal Coil", "value": 193},
		 {"source": "Refreshment Vendor", "target": "Doomsayer", "value": 144},
		 {"source": "Refreshment Vendor", "target": "Acidic Swamp Ooze", "value": 135},
		 {"source": "Refreshment Vendor", "target": "Siphon Soul", "value": 134},
		 {"source": "Refreshment Vendor", "target": "Shadow Bolt", "value": 157},
		 {"source": "Refreshment Vendor", "target": "Shadowflame", "value": 120},
		 {"source": "Refreshment Vendor", "target": "Earthen Ring Farseer", "value": 177},
		 {"source": "Refreshment Vendor", "target": "Demonwrath", "value": 126},
		 {"source": "Refreshment Vendor", "target": "Sylvanas Windrunner", "value": 128},
		 {"source": "Refreshment Vendor", "target": "Dark Peddler", "value": 202},
		 {"source": "Refreshment Vendor", "target": "Sunfury Protector", "value": 116},
		 {"source": "Refreshment Vendor", "target": "Power Overwhelming", "value": 108},
		 {"source": "Refreshment Vendor", "target": "Brann Bronzebeard", "value": 124},
		 {"source": "Refreshment Vendor", "target": "Possessed Villager", "value": 62},
		 {"source": "Refreshment Vendor", "target": "Imp Gang Boss", "value": 160},
		 {"source": "Refreshment Vendor", "target": "Hellfire", "value": 156},
		 {"source": "Refreshment Vendor", "target": "Emperor Thaurissan", "value": 141},
		 {"source": "Refreshment Vendor", "target": "Reno Jackson", "value": 151},
		 {"source": "Refreshment Vendor", "target": "Twilight Drake", "value": 186},
		 {"source": "Sea Giant", "target": "Dark Iron Dwarf", "value": 185},
		 {"source": "Sea Giant", "target": "Flame Imp", "value": 470},
		 {"source": "Sea Giant", "target": "Defender of Argus", "value": 400},
		 {"source": "Sea Giant", "target": "Mortal Coil", "value": 113},
		 {"source": "Sea Giant", "target": "Voidwalker", "value": 526},
		 {"source": "Sea Giant", "target": "Bilefin Tidehunter", "value": 62},
		 {"source": "Sea Giant", "target": "Flame Juggler", "value": 57},
		 {"source": "Sea Giant", "target": "Leeroy Jenkins", "value": 89},
		 {"source": "Sea Giant", "target": "Soulfire", "value": 165},
		 {"source": "Sea Giant", "target": "Dire Wolf Alpha", "value": 446},
		 {"source": "Sea Giant", "target": "Dark Peddler", "value": 525},
		 {"source": "Sea Giant", "target": "Argent Squire", "value": 306},
		 {"source": "Sea Giant", "target": "Knife Juggler", "value": 469},
		 {"source": "Sea Giant", "target": "Darkshire Councilman", "value": 457},
		 {"source": "Sea Giant", "target": "Abusive Sergeant", "value": 497},
		 {"source": "Sea Giant", "target": "Power Overwhelming", "value": 352},
		 {"source": "Sea Giant", "target": "Forbidden Ritual", "value": 392},
		 {"source": "Sea Giant", "target": "Brann Bronzebeard", "value": 74},
		 {"source": "Sea Giant", "target": "Possessed Villager", "value": 548},
		 {"source": "Sea Giant", "target": "Imp Gang Boss", "value": 450},
		 {"source": "Sea Giant", "target": "Doomguard", "value": 148},
		 {"source": "Sea Giant", "target": "Crazed Alchemist", "value": 73},
		 {"source": "Shadowflame", "target": "Defender of Argus", "value": 138},
		 {"source": "Shadowflame", "target": "Mortal Coil", "value": 170},
		 {"source": "Shadowflame", "target": "Doomsayer", "value": 117},
		 {"source": "Shadowflame", "target": "Voidwalker", "value": 63},
		 {"source": "Shadowflame", "target": "Acidic Swamp Ooze", "value": 117},
		 {"source": "Shadowflame", "target": "Siphon Soul", "value": 112},
		 {"source": "Shadowflame", "target": "Shadow Bolt", "value": 139},
		 {"source": "Shadowflame", "target": "Refreshment Vendor", "value": 120},
		 {"source": "Shadowflame", "target": "Earthen Ring Farseer", "value": 154},
		 {"source": "Shadowflame", "target": "Demonwrath", "value": 104},
		 {"source": "Shadowflame", "target": "Sylvanas Windrunner", "value": 116},
		 {"source": "Shadowflame", "target": "Dark Peddler", "value": 191},
		 {"source": "Shadowflame", "target": "Sunfury Protector", "value": 108},
		 {"source": "Shadowflame", "target": "Power Overwhelming", "value": 121},
		 {"source": "Shadowflame", "target": "Brann Bronzebeard", "value": 124},
		 {"source": "Shadowflame", "target": "Possessed Villager", "value": 80},
		 {"source": "Shadowflame", "target": "Imp Gang Boss", "value": 154},
		 {"source": "Shadowflame", "target": "Hellfire", "value": 126},
		 {"source": "Shadowflame", "target": "Emperor Thaurissan", "value": 107},
		 {"source": "Shadowflame", "target": "Reno Jackson", "value": 154},
		 {"source": "Shadowflame", "target": "Twilight Drake", "value": 171},
		 {"source": "Leeroy Jenkins", "target": "Dark Iron Dwarf", "value": 67},
		 {"source": "Leeroy Jenkins", "target": "Flame Imp", "value": 233},
		 {"source": "Leeroy Jenkins", "target": "Defender of Argus", "value": 205},
		 {"source": "Leeroy Jenkins", "target": "Mortal Coil", "value": 110},
		 {"source": "Leeroy Jenkins", "target": "Voidwalker", "value": 250},
		 {"source": "Leeroy Jenkins", "target": "Sea Giant", "value": 89},
		 {"source": "Leeroy Jenkins", "target": "Soulfire", "value": 120},
		 {"source": "Leeroy Jenkins", "target": "Dire Wolf Alpha", "value": 226},
		 {"source": "Leeroy Jenkins", "target": "Dark Peddler", "value": 286},
		 {"source": "Leeroy Jenkins", "target": "Argent Squire", "value": 135},
		 {"source": "Leeroy Jenkins", "target": "Knife Juggler", "value": 219},
		 {"source": "Leeroy Jenkins", "target": "Darkshire Councilman", "value": 211},
		 {"source": "Leeroy Jenkins", "target": "Abusive Sergeant", "value": 256},
		 {"source": "Leeroy Jenkins", "target": "Power Overwhelming", "value": 241},
		 {"source": "Leeroy Jenkins", "target": "Forbidden Ritual", "value": 173},
		 {"source": "Leeroy Jenkins", "target": "Brann Bronzebeard", "value": 65},
		 {"source": "Leeroy Jenkins", "target": "Possessed Villager", "value": 257},
		 {"source": "Leeroy Jenkins", "target": "Imp Gang Boss", "value": 253},
		 {"source": "Leeroy Jenkins", "target": "Crazed Alchemist", "value": 48},
		 {"source": "Earthen Ring Farseer", "target": "Defender of Argus", "value": 176},
		 {"source": "Earthen Ring Farseer", "target": "Mortal Coil", "value": 241},
		 {"source": "Earthen Ring Farseer", "target": "Doomsayer", "value": 159},
		 {"source": "Earthen Ring Farseer", "target": "Voidwalker", "value": 48},
		 {"source": "Earthen Ring Farseer", "target": "Acidic Swamp Ooze", "value": 148},
		 {"source": "Earthen Ring Farseer", "target": "Siphon Soul", "value": 159},
		 {"source": "Earthen Ring Farseer", "target": "Shadow Bolt", "value": 187},
		 {"source": "Earthen Ring Farseer", "target": "Refreshment Vendor", "value": 177},
		 {"source": "Earthen Ring Farseer", "target": "Shadowflame", "value": 154},
		 {"source": "Earthen Ring Farseer", "target": "Soulfire", "value": 56},
		 {"source": "Earthen Ring Farseer", "target": "Demonwrath", "value": 150},
		 {"source": "Earthen Ring Farseer", "target": "Sylvanas Windrunner", "value": 151},
		 {"source": "Earthen Ring Farseer", "target": "Dark Peddler", "value": 258},
		 {"source": "Earthen Ring Farseer", "target": "Sunfury Protector", "value": 159},
		 {"source": "Earthen Ring Farseer", "target": "Power Overwhelming", "value": 145},
		 {"source": "Earthen Ring Farseer", "target": "Brann Bronzebeard", "value": 159},
		 {"source": "Earthen Ring Farseer", "target": "Possessed Villager", "value": 93},
		 {"source": "Earthen Ring Farseer", "target": "Imp Gang Boss", "value": 201},
		 {"source": "Earthen Ring Farseer", "target": "Hellfire", "value": 197},
		 {"source": "Earthen Ring Farseer", "target": "Emperor Thaurissan", "value": 158},
		 {"source": "Earthen Ring Farseer", "target": "Reno Jackson", "value": 180},
		 {"source": "Earthen Ring Farseer", "target": "Twilight Drake", "value": 233},
		 {"source": "Soulfire", "target": "Dark Iron Dwarf", "value": 189},
		 {"source": "Soulfire", "target": "Flame Imp", "value": 627},
		 {"source": "Soulfire", "target": "Defender of Argus", "value": 475},
		 {"source": "Soulfire", "target": "Mortal Coil", "value": 227},
		 {"source": "Soulfire", "target": "Voidwalker", "value": 646},
		 {"source": "Soulfire", "target": "Argent Horserider", "value": 117},
		 {"source": "Soulfire", "target": "Acidic Swamp Ooze", "value": 60},
		 {"source": "Soulfire", "target": "Bilefin Tidehunter", "value": 48},
		 {"source": "Soulfire", "target": "Shadow Bolt", "value": 54},
		 {"source": "Soulfire", "target": "Flame Juggler", "value": 60},
		 {"source": "Soulfire", "target": "Sea Giant", "value": 165},
		 {"source": "Soulfire", "target": "Leeroy Jenkins", "value": 120},
		 {"source": "Soulfire", "target": "Earthen Ring Farseer", "value": 56},
		 {"source": "Soulfire", "target": "Dire Wolf Alpha", "value": 551},
		 {"source": "Soulfire", "target": "Dark Peddler", "value": 721},
		 {"source": "Soulfire", "target": "Argent Squire", "value": 383},
		 {"source": "Soulfire", "target": "Knife Juggler", "value": 521},
		 {"source": "Soulfire", "target": "Darkshire Councilman", "value": 521},
		 {"source": "Soulfire", "target": "Abusive Sergeant", "value": 593},
		 {"source": "Soulfire", "target": "Power Overwhelming", "value": 466},
		 {"source": "Soulfire", "target": "Forbidden Ritual", "value": 426},
		 {"source": "Soulfire", "target": "Brann Bronzebeard", "value": 122},
		 {"source": "Soulfire", "target": "Possessed Villager", "value": 634},
		 {"source": "Soulfire", "target": "Imp Gang Boss", "value": 559},
		 {"source": "Soulfire", "target": "Hellfire", "value": 65},
		 {"source": "Soulfire", "target": "Twilight Drake", "value": 56},
		 {"source": "Soulfire", "target": "Doomguard", "value": 230},
		 {"source": "Soulfire", "target": "Crazed Alchemist", "value": 93},
		 {"source": "Demonwrath", "target": "Defender of Argus", "value": 125},
		 {"source": "Demonwrath", "target": "Mortal Coil", "value": 175},
		 {"source": "Demonwrath", "target": "Doomsayer", "value": 132},
		 {"source": "Demonwrath", "target": "Acidic Swamp Ooze", "value": 113},
		 {"source": "Demonwrath", "target": "Siphon Soul", "value": 131},
		 {"source": "Demonwrath", "target": "Shadow Bolt", "value": 159},
		 {"source": "Demonwrath", "target": "Refreshment Vendor", "value": 126},
		 {"source": "Demonwrath", "target": "Shadowflame", "value": 104},
		 {"source": "Demonwrath", "target": "Earthen Ring Farseer", "value": 150},
		 {"source": "Demonwrath", "target": "Sylvanas Windrunner", "value": 100},
		 {"source": "Demonwrath", "target": "Dark Peddler", "value": 187},
		 {"source": "Demonwrath", "target": "Sunfury Protector", "value": 99},
		 {"source": "Demonwrath", "target": "Power Overwhelming", "value": 98},
		 {"source": "Demonwrath", "target": "Brann Bronzebeard", "value": 109},
		 {"source": "Demonwrath", "target": "Possessed Villager", "value": 74},
		 {"source": "Demonwrath", "target": "Imp Gang Boss", "value": 162},
		 {"source": "Demonwrath", "target": "Hellfire", "value": 139},
		 {"source": "Demonwrath", "target": "Emperor Thaurissan", "value": 110},
		 {"source": "Demonwrath", "target": "Reno Jackson", "value": 152},
		 {"source": "Demonwrath", "target": "Twilight Drake", "value": 170},
		 {"source": "Sylvanas Windrunner", "target": "Defender of Argus", "value": 134},
		 {"source": "Sylvanas Windrunner", "target": "Mortal Coil", "value": 166},
		 {"source": "Sylvanas Windrunner", "target": "Doomsayer", "value": 118},
		 {"source": "Sylvanas Windrunner", "target": "Acidic Swamp Ooze", "value": 107},
		 {"source": "Sylvanas Windrunner", "target": "Siphon Soul", "value": 124},
		 {"source": "Sylvanas Windrunner", "target": "Shadow Bolt", "value": 151},
		 {"source": "Sylvanas Windrunner", "target": "Refreshment Vendor", "value": 128},
		 {"source": "Sylvanas Windrunner", "target": "Shadowflame", "value": 116},
		 {"source": "Sylvanas Windrunner", "target": "Earthen Ring Farseer", "value": 151},
		 {"source": "Sylvanas Windrunner", "target": "Demonwrath", "value": 100},
		 {"source": "Sylvanas Windrunner", "target": "Dark Peddler", "value": 189},
		 {"source": "Sylvanas Windrunner", "target": "Sunfury Protector", "value": 116},
		 {"source": "Sylvanas Windrunner", "target": "Power Overwhelming", "value": 104},
		 {"source": "Sylvanas Windrunner", "target": "Brann Bronzebeard", "value": 123},
		 {"source": "Sylvanas Windrunner", "target": "Possessed Villager", "value": 70},
		 {"source": "Sylvanas Windrunner", "target": "Imp Gang Boss", "value": 139},
		 {"source": "Sylvanas Windrunner", "target": "Hellfire", "value": 134},
		 {"source": "Sylvanas Windrunner", "target": "Emperor Thaurissan", "value": 121},
		 {"source": "Sylvanas Windrunner", "target": "Reno Jackson", "value": 147},
		 {"source": "Sylvanas Windrunner", "target": "Twilight Drake", "value": 162},
		 {"source": "Dire Wolf Alpha", "target": "Dark Iron Dwarf", "value": 530},
		 {"source": "Dire Wolf Alpha", "target": "Flame Imp", "value": 1508},
		 {"source": "Dire Wolf Alpha", "target": "Defender of Argus", "value": 1131},
		 {"source": "Dire Wolf Alpha", "target": "Mortal Coil", "value": 395},
		 {"source": "Dire Wolf Alpha", "target": "Voidwalker", "value": 1577},
		 {"source": "Dire Wolf Alpha", "target": "Argent Horserider", "value": 209},
		 {"source": "Dire Wolf Alpha", "target": "Acidic Swamp Ooze", "value": 81},
		 {"source": "Dire Wolf Alpha", "target": "Bilefin Tidehunter", "value": 132},
		 {"source": "Dire Wolf Alpha", "target": "Flame Juggler", "value": 181},
		 {"source": "Dire Wolf Alpha", "target": "Sea Giant", "value": 446},
		 {"source": "Dire Wolf Alpha", "target": "Leeroy Jenkins", "value": 226},
		 {"source": "Dire Wolf Alpha", "target": "Soulfire", "value": 551},
		 {"source": "Dire Wolf Alpha", "target": "Dark Peddler", "value": 1507},
		 {"source": "Dire Wolf Alpha", "target": "Argent Squire", "value": 1019},
		 {"source": "Dire Wolf Alpha", "target": "Knife Juggler", "value": 1366},
		 {"source": "Dire Wolf Alpha", "target": "Darkshire Councilman", "value": 1348},
		 {"source": "Dire Wolf Alpha", "target": "Abusive Sergeant", "value": 1485},
		 {"source": "Dire Wolf Alpha", "target": "Power Overwhelming", "value": 1057},
		 {"source": "Dire Wolf Alpha", "target": "Forbidden Ritual", "value": 1071},
		 {"source": "Dire Wolf Alpha", "target": "Brann Bronzebeard", "value": 170},
		 {"source": "Dire Wolf Alpha", "target": "Possessed Villager", "value": 1560},
		 {"source": "Dire Wolf Alpha", "target": "Imp Gang Boss", "value": 1334},
		 {"source": "Dire Wolf Alpha", "target": "Doomguard", "value": 635},
		 {"source": "Dire Wolf Alpha", "target": "Crazed Alchemist", "value": 281},
		 {"source": "Dark Peddler", "target": "Dark Iron Dwarf", "value": 585},
		 {"source": "Dark Peddler", "target": "Flame Imp", "value": 1748},
		 {"source": "Dark Peddler", "target": "Defender of Argus", "value": 1473},
		 {"source": "Dark Peddler", "target": "Mortal Coil", "value": 799},
		 {"source": "Dark Peddler", "target": "Doomsayer", "value": 213},
		 {"source": "Dark Peddler", "target": "Voidwalker", "value": 1875},
		 {"source": "Dark Peddler", "target": "Argent Horserider", "value": 237},
		 {"source": "Dark Peddler", "target": "Acidic Swamp Ooze", "value": 271},
		 {"source": "Dark Peddler", "target": "Siphon Soul", "value": 205},
		 {"source": "Dark Peddler", "target": "Bilefin Tidehunter", "value": 166},
		 {"source": "Dark Peddler", "target": "Shadow Bolt", "value": 281},
		 {"source": "Dark Peddler", "target": "Flame Juggler", "value": 204},
		 {"source": "Dark Peddler", "target": "Refreshment Vendor", "value": 202},
		 {"source": "Dark Peddler", "target": "Sea Giant", "value": 525},
		 {"source": "Dark Peddler", "target": "Shadowflame", "value": 191},
		 {"source": "Dark Peddler", "target": "Leeroy Jenkins", "value": 286},
		 {"source": "Dark Peddler", "target": "Earthen Ring Farseer", "value": 258},
		 {"source": "Dark Peddler", "target": "Soulfire", "value": 721},
		 {"source": "Dark Peddler", "target": "Demonwrath", "value": 187},
		 {"source": "Dark Peddler", "target": "Sylvanas Windrunner", "value": 189},
		 {"source": "Dark Peddler", "target": "Dire Wolf Alpha", "value": 1507},
		 {"source": "Dark Peddler", "target": "Argent Squire", "value": 1152},
		 {"source": "Dark Peddler", "target": "Knife Juggler", "value": 1553},
		 {"source": "Dark Peddler", "target": "Sunfury Protector", "value": 162},
		 {"source": "Dark Peddler", "target": "Darkshire Councilman", "value": 1528},
		 {"source": "Dark Peddler", "target": "Abusive Sergeant", "value": 1680},
		 {"source": "Dark Peddler", "target": "Power Overwhelming", "value": 1414},
		 {"source": "Dark Peddler", "target": "Forbidden Ritual", "value": 1183},
		 {"source": "Dark Peddler", "target": "Brann Bronzebeard", "value": 402},
		 {"source": "Dark Peddler", "target": "Possessed Villager", "value": 1920},
		 {"source": "Dark Peddler", "target": "Imp Gang Boss", "value": 1760},
		 {"source": "Dark Peddler", "target": "Hellfire", "value": 268},
		 {"source": "Dark Peddler", "target": "Emperor Thaurissan", "value": 209},
		 {"source": "Dark Peddler", "target": "Reno Jackson", "value": 222},
		 {"source": "Dark Peddler", "target": "Twilight Drake", "value": 277},
		 {"source": "Dark Peddler", "target": "Doomguard", "value": 766},
		 {"source": "Dark Peddler", "target": "Crazed Alchemist", "value": 315},
		 {"source": "Argent Squire", "target": "Dark Iron Dwarf", "value": 408},
		 {"source": "Argent Squire", "target": "Flame Imp", "value": 1104},
		 {"source": "Argent Squire", "target": "Defender of Argus", "value": 884},
		 {"source": "Argent Squire", "target": "Mortal Coil", "value": 277},
		 {"source": "Argent Squire", "target": "Voidwalker", "value": 1148},
		 {"source": "Argent Squire", "target": "Argent Horserider", "value": 122},
		 {"source": "Argent Squire", "target": "Acidic Swamp Ooze", "value": 77},
		 {"source": "Argent Squire", "target": "Bilefin Tidehunter", "value": 66},
		 {"source": "Argent Squire", "target": "Flame Juggler", "value": 134},
		 {"source": "Argent Squire", "target": "Sea Giant", "value": 306},
		 {"source": "Argent Squire", "target": "Leeroy Jenkins", "value": 135},
		 {"source": "Argent Squire", "target": "Soulfire", "value": 383},
		 {"source": "Argent Squire", "target": "Dire Wolf Alpha", "value": 1019},
		 {"source": "Argent Squire", "target": "Dark Peddler", "value": 1152},
		 {"source": "Argent Squire", "target": "Knife Juggler", "value": 1047},
		 {"source": "Argent Squire", "target": "Darkshire Councilman", "value": 1008},
		 {"source": "Argent Squire", "target": "Abusive Sergeant", "value": 1086},
		 {"source": "Argent Squire", "target": "Power Overwhelming", "value": 835},
		 {"source": "Argent Squire", "target": "Forbidden Ritual", "value": 780},
		 {"source": "Argent Squire", "target": "Brann Bronzebeard", "value": 92},
		 {"source": "Argent Squire", "target": "Possessed Villager", "value": 1208},
		 {"source": "Argent Squire", "target": "Imp Gang Boss", "value": 986},
		 {"source": "Argent Squire", "target": "Doomguard", "value": 607},
		 {"source": "Argent Squire", "target": "Crazed Alchemist", "value": 182},
		 {"source": "Knife Juggler", "target": "Dark Iron Dwarf", "value": 544},
		 {"source": "Knife Juggler", "target": "Flame Imp", "value": 1537},
		 {"source": "Knife Juggler", "target": "Defender of Argus", "value": 1158},
		 {"source": "Knife Juggler", "target": "Mortal Coil", "value": 396},
		 {"source": "Knife Juggler", "target": "Voidwalker", "value": 1607},
		 {"source": "Knife Juggler", "target": "Argent Horserider", "value": 176},
		 {"source": "Knife Juggler", "target": "Acidic Swamp Ooze", "value": 94},
		 {"source": "Knife Juggler", "target": "Bilefin Tidehunter", "value": 133},
		 {"source": "Knife Juggler", "target": "Flame Juggler", "value": 169},
		 {"source": "Knife Juggler", "target": "Sea Giant", "value": 469},
		 {"source": "Knife Juggler", "target": "Leeroy Jenkins", "value": 219},
		 {"source": "Knife Juggler", "target": "Soulfire", "value": 521},
		 {"source": "Knife Juggler", "target": "Dire Wolf Alpha", "value": 1366},
		 {"source": "Knife Juggler", "target": "Dark Peddler", "value": 1553},
		 {"source": "Knife Juggler", "target": "Argent Squire", "value": 1047},
		 {"source": "Knife Juggler", "target": "Darkshire Councilman", "value": 1379},
		 {"source": "Knife Juggler", "target": "Abusive Sergeant", "value": 1476},
		 {"source": "Knife Juggler", "target": "Power Overwhelming", "value": 1064},
		 {"source": "Knife Juggler", "target": "Forbidden Ritual", "value": 1185},
		 {"source": "Knife Juggler", "target": "Brann Bronzebeard", "value": 172},
		 {"source": "Knife Juggler", "target": "Possessed Villager", "value": 1601},
		 {"source": "Knife Juggler", "target": "Imp Gang Boss", "value": 1386},
		 {"source": "Knife Juggler", "target": "Doomguard", "value": 683},
		 {"source": "Knife Juggler", "target": "Crazed Alchemist", "value": 280},
		 {"source": "Sunfury Protector", "target": "Defender of Argus", "value": 115},
		 {"source": "Sunfury Protector", "target": "Mortal Coil", "value": 163},
		 {"source": "Sunfury Protector", "target": "Doomsayer", "value": 109},
		 {"source": "Sunfury Protector", "target": "Acidic Swamp Ooze", "value": 99},
		 {"source": "Sunfury Protector", "target": "Siphon Soul", "value": 104},
		 {"source": "Sunfury Protector", "target": "Shadow Bolt", "value": 148},
		 {"source": "Sunfury Protector", "target": "Refreshment Vendor", "value": 116},
		 {"source": "Sunfury Protector", "target": "Shadowflame", "value": 108},
		 {"source": "Sunfury Protector", "target": "Earthen Ring Farseer", "value": 159},
		 {"source": "Sunfury Protector", "target": "Demonwrath", "value": 99},
		 {"source": "Sunfury Protector", "target": "Sylvanas Windrunner", "value": 116},
		 {"source": "Sunfury Protector", "target": "Dark Peddler", "value": 162},
		 {"source": "Sunfury Protector", "target": "Power Overwhelming", "value": 98},
		 {"source": "Sunfury Protector", "target": "Brann Bronzebeard", "value": 103},
		 {"source": "Sunfury Protector", "target": "Possessed Villager", "value": 71},
		 {"source": "Sunfury Protector", "target": "Imp Gang Boss", "value": 122},
		 {"source": "Sunfury Protector", "target": "Hellfire", "value": 136},
		 {"source": "Sunfury Protector", "target": "Emperor Thaurissan", "value": 100},
		 {"source": "Sunfury Protector", "target": "Reno Jackson", "value": 125},
		 {"source": "Sunfury Protector", "target": "Twilight Drake", "value": 155},
		 {"source": "Darkshire Councilman", "target": "Dark Iron Dwarf", "value": 538},
		 {"source": "Darkshire Councilman", "target": "Flame Imp", "value": 1480},
		 {"source": "Darkshire Councilman", "target": "Defender of Argus", "value": 1157},
		 {"source": "Darkshire Councilman", "target": "Mortal Coil", "value": 402},
		 {"source": "Darkshire Councilman", "target": "Voidwalker", "value": 1571},
		 {"source": "Darkshire Councilman", "target": "Argent Horserider", "value": 187},
		 {"source": "Darkshire Councilman", "target": "Acidic Swamp Ooze", "value": 90},
		 {"source": "Darkshire Councilman", "target": "Bilefin Tidehunter", "value": 151},
		 {"source": "Darkshire Councilman", "target": "Flame Juggler", "value": 182},
		 {"source": "Darkshire Councilman", "target": "Sea Giant", "value": 457},
		 {"source": "Darkshire Councilman", "target": "Leeroy Jenkins", "value": 211},
		 {"source": "Darkshire Councilman", "target": "Soulfire", "value": 521},
		 {"source": "Darkshire Councilman", "target": "Dire Wolf Alpha", "value": 1348},
		 {"source": "Darkshire Councilman", "target": "Dark Peddler", "value": 1528},
		 {"source": "Darkshire Councilman", "target": "Argent Squire", "value": 1008},
		 {"source": "Darkshire Councilman", "target": "Knife Juggler", "value": 1379},
		 {"source": "Darkshire Councilman", "target": "Abusive Sergeant", "value": 1450},
		 {"source": "Darkshire Councilman", "target": "Power Overwhelming", "value": 1104},
		 {"source": "Darkshire Councilman", "target": "Forbidden Ritual", "value": 1128},
		 {"source": "Darkshire Councilman", "target": "Brann Bronzebeard", "value": 174},
		 {"source": "Darkshire Councilman", "target": "Possessed Villager", "value": 1596},
		 {"source": "Darkshire Councilman", "target": "Imp Gang Boss", "value": 1341},
		 {"source": "Darkshire Councilman", "target": "Doomguard", "value": 637},
		 {"source": "Darkshire Councilman", "target": "Crazed Alchemist", "value": 268},
		 {"source": "Abusive Sergeant", "target": "Dark Iron Dwarf", "value": 582},
		 {"source": "Abusive Sergeant", "target": "Flame Imp", "value": 1637},
		 {"source": "Abusive Sergeant", "target": "Defender of Argus", "value": 1262},
		 {"source": "Abusive Sergeant", "target": "Mortal Coil", "value": 468},
		 {"source": "Abusive Sergeant", "target": "Voidwalker", "value": 1714},
		 {"source": "Abusive Sergeant", "target": "Argent Horserider", "value": 246},
		 {"source": "Abusive Sergeant", "target": "Acidic Swamp Ooze", "value": 124},
		 {"source": "Abusive Sergeant", "target": "Bilefin Tidehunter", "value": 142},
		 {"source": "Abusive Sergeant", "target": "Flame Juggler", "value": 186},
		 {"source": "Abusive Sergeant", "target": "Sea Giant", "value": 497},
		 {"source": "Abusive Sergeant", "target": "Leeroy Jenkins", "value": 256},
		 {"source": "Abusive Sergeant", "target": "Soulfire", "value": 593},
		 {"source": "Abusive Sergeant", "target": "Dire Wolf Alpha", "value": 1485},
		 {"source": "Abusive Sergeant", "target": "Dark Peddler", "value": 1680},
		 {"source": "Abusive Sergeant", "target": "Argent Squire", "value": 1086},
		 {"source": "Abusive Sergeant", "target": "Knife Juggler", "value": 1476},
		 {"source": "Abusive Sergeant", "target": "Darkshire Councilman", "value": 1450},
		 {"source": "Abusive Sergeant", "target": "Power Overwhelming", "value": 1191},
		 {"source": "Abusive Sergeant", "target": "Forbidden Ritual", "value": 1138},
		 {"source": "Abusive Sergeant", "target": "Brann Bronzebeard", "value": 215},
		 {"source": "Abusive Sergeant", "target": "Possessed Villager", "value": 1707},
		 {"source": "Abusive Sergeant", "target": "Imp Gang Boss", "value": 1463},
		 {"source": "Abusive Sergeant", "target": "Hellfire", "value": 62},
		 {"source": "Abusive Sergeant", "target": "Doomguard", "value": 739},
		 {"source": "Abusive Sergeant", "target": "Crazed Alchemist", "value": 285},
		 {"source": "Power Overwhelming", "target": "Dark Iron Dwarf", "value": 413},
		 {"source": "Power Overwhelming", "target": "Flame Imp", "value": 1150},
		 {"source": "Power Overwhelming", "target": "Defender of Argus", "value": 1029},
		 {"source": "Power Overwhelming", "target": "Mortal Coil", "value": 463},
		 {"source": "Power Overwhelming", "target": "Doomsayer", "value": 99},
		 {"source": "Power Overwhelming", "target": "Voidwalker", "value": 1290},
		 {"source": "Power Overwhelming", "target": "Argent Horserider", "value": 154},
		 {"source": "Power Overwhelming", "target": "Acidic Swamp Ooze", "value": 176},
		 {"source": "Power Overwhelming", "target": "Siphon Soul", "value": 109},
		 {"source": "Power Overwhelming", "target": "Bilefin Tidehunter", "value": 105},
		 {"source": "Power Overwhelming", "target": "Shadow Bolt", "value": 147},
		 {"source": "Power Overwhelming", "target": "Flame Juggler", "value": 130},
		 {"source": "Power Overwhelming", "target": "Refreshment Vendor", "value": 108},
		 {"source": "Power Overwhelming", "target": "Sea Giant", "value": 352},
		 {"source": "Power Overwhelming", "target": "Shadowflame", "value": 121},
		 {"source": "Power Overwhelming", "target": "Leeroy Jenkins", "value": 241},
		 {"source": "Power Overwhelming", "target": "Earthen Ring Farseer", "value": 145},
		 {"source": "Power Overwhelming", "target": "Soulfire", "value": 466},
		 {"source": "Power Overwhelming", "target": "Demonwrath", "value": 98},
		 {"source": "Power Overwhelming", "target": "Sylvanas Windrunner", "value": 104},
		 {"source": "Power Overwhelming", "target": "Dire Wolf Alpha", "value": 1057},
		 {"source": "Power Overwhelming", "target": "Dark Peddler", "value": 1414},
		 {"source": "Power Overwhelming", "target": "Argent Squire", "value": 835},
		 {"source": "Power Overwhelming", "target": "Knife Juggler", "value": 1064},
		 {"source": "Power Overwhelming", "target": "Sunfury Protector", "value": 98},
		 {"source": "Power Overwhelming", "target": "Darkshire Councilman", "value": 1104},
		 {"source": "Power Overwhelming", "target": "Abusive Sergeant", "value": 1191},
		 {"source": "Power Overwhelming", "target": "Forbidden Ritual", "value": 885},
		 {"source": "Power Overwhelming", "target": "Brann Bronzebeard", "value": 230},
		 {"source": "Power Overwhelming", "target": "Possessed Villager", "value": 1357},
		 {"source": "Power Overwhelming", "target": "Imp Gang Boss", "value": 1215},
		 {"source": "Power Overwhelming", "target": "Hellfire", "value": 140},
		 {"source": "Power Overwhelming", "target": "Emperor Thaurissan", "value": 117},
		 {"source": "Power Overwhelming", "target": "Reno Jackson", "value": 130},
		 {"source": "Power Overwhelming", "target": "Twilight Drake", "value": 133},
		 {"source": "Power Overwhelming", "target": "Doomguard", "value": 578},
		 {"source": "Power Overwhelming", "target": "Crazed Alchemist", "value": 208},
		 {"source": "Forbidden Ritual", "target": "Dark Iron Dwarf", "value": 430},
		 {"source": "Forbidden Ritual", "target": "Flame Imp", "value": 1166},
		 {"source": "Forbidden Ritual", "target": "Defender of Argus", "value": 919},
		 {"source": "Forbidden Ritual", "target": "Mortal Coil", "value": 302},
		 {"source": "Forbidden Ritual", "target": "Voidwalker", "value": 1262},
		 {"source": "Forbidden Ritual", "target": "Argent Horserider", "value": 153},
		 {"source": "Forbidden Ritual", "target": "Acidic Swamp Ooze", "value": 86},
		 {"source": "Forbidden Ritual", "target": "Bilefin Tidehunter", "value": 110},
		 {"source": "Forbidden Ritual", "target": "Flame Juggler", "value": 143},
		 {"source": "Forbidden Ritual", "target": "Sea Giant", "value": 392},
		 {"source": "Forbidden Ritual", "target": "Leeroy Jenkins", "value": 173},
		 {"source": "Forbidden Ritual", "target": "Soulfire", "value": 426},
		 {"source": "Forbidden Ritual", "target": "Dire Wolf Alpha", "value": 1071},
		 {"source": "Forbidden Ritual", "target": "Dark Peddler", "value": 1183},
		 {"source": "Forbidden Ritual", "target": "Argent Squire", "value": 780},
		 {"source": "Forbidden Ritual", "target": "Knife Juggler", "value": 1185},
		 {"source": "Forbidden Ritual", "target": "Darkshire Councilman", "value": 1128},
		 {"source": "Forbidden Ritual", "target": "Abusive Sergeant", "value": 1138},
		 {"source": "Forbidden Ritual", "target": "Power Overwhelming", "value": 885},
		 {"source": "Forbidden Ritual", "target": "Brann Bronzebeard", "value": 151},
		 {"source": "Forbidden Ritual", "target": "Possessed Villager", "value": 1256},
		 {"source": "Forbidden Ritual", "target": "Imp Gang Boss", "value": 1058},
		 {"source": "Forbidden Ritual", "target": "Doomguard", "value": 521},
		 {"source": "Forbidden Ritual", "target": "Crazed Alchemist", "value": 220},
		 {"source": "Brann Bronzebeard", "target": "Dark Iron Dwarf", "value": 80},
		 {"source": "Brann Bronzebeard", "target": "Flame Imp", "value": 199},
		 {"source": "Brann Bronzebeard", "target": "Defender of Argus", "value": 322},
		 {"source": "Brann Bronzebeard", "target": "Mortal Coil", "value": 224},
		 {"source": "Brann Bronzebeard", "target": "Doomsayer", "value": 128},
		 {"source": "Brann Bronzebeard", "target": "Voidwalker", "value": 259},
		 {"source": "Brann Bronzebeard", "target": "Argent Horserider", "value": 46},
		 {"source": "Brann Bronzebeard", "target": "Acidic Swamp Ooze", "value": 127},
		 {"source": "Brann Bronzebeard", "target": "Siphon Soul", "value": 133},
		 {"source": "Brann Bronzebeard", "target": "Bilefin Tidehunter", "value": 46},
		 {"source": "Brann Bronzebeard", "target": "Shadow Bolt", "value": 159},
		 {"source": "Brann Bronzebeard", "target": "Refreshment Vendor", "value": 124},
		 {"source": "Brann Bronzebeard", "target": "Sea Giant", "value": 74},
		 {"source": "Brann Bronzebeard", "target": "Shadowflame", "value": 124},
		 {"source": "Brann Bronzebeard", "target": "Leeroy Jenkins", "value": 65},
		 {"source": "Brann Bronzebeard", "target": "Earthen Ring Farseer", "value": 159},
		 {"source": "Brann Bronzebeard", "target": "Soulfire", "value": 122},
		 {"source": "Brann Bronzebeard", "target": "Demonwrath", "value": 109},
		 {"source": "Brann Bronzebeard", "target": "Sylvanas Windrunner", "value": 123},
		 {"source": "Brann Bronzebeard", "target": "Dire Wolf Alpha", "value": 170},
		 {"source": "Brann Bronzebeard", "target": "Dark Peddler", "value": 402},
		 {"source": "Brann Bronzebeard", "target": "Argent Squire", "value": 92},
		 {"source": "Brann Bronzebeard", "target": "Knife Juggler", "value": 172},
		 {"source": "Brann Bronzebeard", "target": "Sunfury Protector", "value": 103},
		 {"source": "Brann Bronzebeard", "target": "Darkshire Councilman", "value": 174},
		 {"source": "Brann Bronzebeard", "target": "Abusive Sergeant", "value": 215},
		 {"source": "Brann Bronzebeard", "target": "Power Overwhelming", "value": 230},
		 {"source": "Brann Bronzebeard", "target": "Forbidden Ritual", "value": 151},
		 {"source": "Brann Bronzebeard", "target": "Possessed Villager", "value": 254},
		 {"source": "Brann Bronzebeard", "target": "Imp Gang Boss", "value": 331},
		 {"source": "Brann Bronzebeard", "target": "Hellfire", "value": 156},
		 {"source": "Brann Bronzebeard", "target": "Emperor Thaurissan", "value": 118},
		 {"source": "Brann Bronzebeard", "target": "Reno Jackson", "value": 152},
		 {"source": "Brann Bronzebeard", "target": "Twilight Drake", "value": 172},
		 {"source": "Brann Bronzebeard", "target": "Doomguard", "value": 56},
		 {"source": "Possessed Villager", "target": "Dark Iron Dwarf", "value": 607},
		 {"source": "Possessed Villager", "target": "Flame Imp", "value": 1729},
		 {"source": "Possessed Villager", "target": "Defender of Argus", "value": 1407},
		 {"source": "Possessed Villager", "target": "Mortal Coil", "value": 552},
		 {"source": "Possessed Villager", "target": "Doomsayer", "value": 58},
		 {"source": "Possessed Villager", "target": "Voidwalker", "value": 1841},
		 {"source": "Possessed Villager", "target": "Argent Horserider", "value": 229},
		 {"source": "Possessed Villager", "target": "Acidic Swamp Ooze", "value": 160},
		 {"source": "Possessed Villager", "target": "Siphon Soul", "value": 74},
		 {"source": "Possessed Villager", "target": "Bilefin Tidehunter", "value": 161},
		 {"source": "Possessed Villager", "target": "Shadow Bolt", "value": 112},
		 {"source": "Possessed Villager", "target": "Flame Juggler", "value": 199},
		 {"source": "Possessed Villager", "target": "Refreshment Vendor", "value": 62},
		 {"source": "Possessed Villager", "target": "Sea Giant", "value": 548},
		 {"source": "Possessed Villager", "target": "Shadowflame", "value": 80},
		 {"source": "Possessed Villager", "target": "Leeroy Jenkins", "value": 257},
		 {"source": "Possessed Villager", "target": "Earthen Ring Farseer", "value": 93},
		 {"source": "Possessed Villager", "target": "Soulfire", "value": 634},
		 {"source": "Possessed Villager", "target": "Demonwrath", "value": 74},
		 {"source": "Possessed Villager", "target": "Sylvanas Windrunner", "value": 70},
		 {"source": "Possessed Villager", "target": "Dire Wolf Alpha", "value": 1560},
		 {"source": "Possessed Villager", "target": "Dark Peddler", "value": 1920},
		 {"source": "Possessed Villager", "target": "Argent Squire", "value": 1208},
		 {"source": "Possessed Villager", "target": "Knife Juggler", "value": 1601},
		 {"source": "Possessed Villager", "target": "Sunfury Protector", "value": 71},
		 {"source": "Possessed Villager", "target": "Darkshire Councilman", "value": 1596},
		 {"source": "Possessed Villager", "target": "Abusive Sergeant", "value": 1707},
		 {"source": "Possessed Villager", "target": "Power Overwhelming", "value": 1357},
		 {"source": "Possessed Villager", "target": "Forbidden Ritual", "value": 1256},
		 {"source": "Possessed Villager", "target": "Brann Bronzebeard", "value": 254},
		 {"source": "Possessed Villager", "target": "Imp Gang Boss", "value": 1674},
		 {"source": "Possessed Villager", "target": "Hellfire", "value": 109},
		 {"source": "Possessed Villager", "target": "Emperor Thaurissan", "value": 74},
		 {"source": "Possessed Villager", "target": "Reno Jackson", "value": 79},
		 {"source": "Possessed Villager", "target": "Twilight Drake", "value": 99},
		 {"source": "Possessed Villager", "target": "Doomguard", "value": 813},
		 {"source": "Possessed Villager", "target": "Crazed Alchemist", "value": 322},
		 {"source": "Imp Gang Boss", "target": "Dark Iron Dwarf", "value": 508},
		 {"source": "Imp Gang Boss", "target": "Flame Imp", "value": 1471},
		 {"source": "Imp Gang Boss", "target": "Defender of Argus", "value": 1312},
		 {"source": "Imp Gang Boss", "target": "Mortal Coil", "value": 605},
		 {"source": "Imp Gang Boss", "target": "Doomsayer", "value": 150},
		 {"source": "Imp Gang Boss", "target": "Voidwalker", "value": 1597},
		 {"source": "Imp Gang Boss", "target": "Argent Horserider", "value": 192},
		 {"source": "Imp Gang Boss", "target": "Acidic Swamp Ooze", "value": 239},
		 {"source": "Imp Gang Boss", "target": "Siphon Soul", "value": 171},
		 {"source": "Imp Gang Boss", "target": "Bilefin Tidehunter", "value": 119},
		 {"source": "Imp Gang Boss", "target": "Shadow Bolt", "value": 234},
		 {"source": "Imp Gang Boss", "target": "Flame Juggler", "value": 164},
		 {"source": "Imp Gang Boss", "target": "Refreshment Vendor", "value": 160},
		 {"source": "Imp Gang Boss", "target": "Sea Giant", "value": 450},
		 {"source": "Imp Gang Boss", "target": "Shadowflame", "value": 154},
		 {"source": "Imp Gang Boss", "target": "Leeroy Jenkins", "value": 253},
		 {"source": "Imp Gang Boss", "target": "Earthen Ring Farseer", "value": 201},
		 {"source": "Imp Gang Boss", "target": "Soulfire", "value": 559},
		 {"source": "Imp Gang Boss", "target": "Demonwrath", "value": 162},
		 {"source": "Imp Gang Boss", "target": "Sylvanas Windrunner", "value": 139},
		 {"source": "Imp Gang Boss", "target": "Dire Wolf Alpha", "value": 1334},
		 {"source": "Imp Gang Boss", "target": "Dark Peddler", "value": 1760},
		 {"source": "Imp Gang Boss", "target": "Argent Squire", "value": 986},
		 {"source": "Imp Gang Boss", "target": "Knife Juggler", "value": 1386},
		 {"source": "Imp Gang Boss", "target": "Sunfury Protector", "value": 122},
		 {"source": "Imp Gang Boss", "target": "Darkshire Councilman", "value": 1341},
		 {"source": "Imp Gang Boss", "target": "Abusive Sergeant", "value": 1463},
		 {"source": "Imp Gang Boss", "target": "Power Overwhelming", "value": 1215},
		 {"source": "Imp Gang Boss", "target": "Forbidden Ritual", "value": 1058},
		 {"source": "Imp Gang Boss", "target": "Brann Bronzebeard", "value": 331},
		 {"source": "Imp Gang Boss", "target": "Possessed Villager", "value": 1674},
		 {"source": "Imp Gang Boss", "target": "Hellfire", "value": 210},
		 {"source": "Imp Gang Boss", "target": "Emperor Thaurissan", "value": 153},
		 {"source": "Imp Gang Boss", "target": "Reno Jackson", "value": 194},
		 {"source": "Imp Gang Boss", "target": "Twilight Drake", "value": 216},
		 {"source": "Imp Gang Boss", "target": "Doomguard", "value": 661},
		 {"source": "Imp Gang Boss", "target": "Crazed Alchemist", "value": 270},
		 {"source": "Hellfire", "target": "Defender of Argus", "value": 180},
		 {"source": "Hellfire", "target": "Mortal Coil", "value": 232},
		 {"source": "Hellfire", "target": "Doomsayer", "value": 152},
		 {"source": "Hellfire", "target": "Voidwalker", "value": 91},
		 {"source": "Hellfire", "target": "Acidic Swamp Ooze", "value": 125},
		 {"source": "Hellfire", "target": "Siphon Soul", "value": 153},
		 {"source": "Hellfire", "target": "Shadow Bolt", "value": 203},
		 {"source": "Hellfire", "target": "Refreshment Vendor", "value": 156},
		 {"source": "Hellfire", "target": "Shadowflame", "value": 126},
		 {"source": "Hellfire", "target": "Earthen Ring Farseer", "value": 197},
		 {"source": "Hellfire", "target": "Soulfire", "value": 65},
		 {"source": "Hellfire", "target": "Demonwrath", "value": 139},
		 {"source": "Hellfire", "target": "Sylvanas Windrunner", "value": 134},
		 {"source": "Hellfire", "target": "Dark Peddler", "value": 268},
		 {"source": "Hellfire", "target": "Sunfury Protector", "value": 136},
		 {"source": "Hellfire", "target": "Abusive Sergeant", "value": 62},
		 {"source": "Hellfire", "target": "Power Overwhelming", "value": 140},
		 {"source": "Hellfire", "target": "Brann Bronzebeard", "value": 156},
		 {"source": "Hellfire", "target": "Possessed Villager", "value": 109},
		 {"source": "Hellfire", "target": "Imp Gang Boss", "value": 210},
		 {"source": "Hellfire", "target": "Emperor Thaurissan", "value": 152},
		 {"source": "Hellfire", "target": "Reno Jackson", "value": 182},
		 {"source": "Hellfire", "target": "Twilight Drake", "value": 205},
		 {"source": "Emperor Thaurissan", "target": "Defender of Argus", "value": 137},
		 {"source": "Emperor Thaurissan", "target": "Mortal Coil", "value": 182},
		 {"source": "Emperor Thaurissan", "target": "Doomsayer", "value": 131},
		 {"source": "Emperor Thaurissan", "target": "Acidic Swamp Ooze", "value": 125},
		 {"source": "Emperor Thaurissan", "target": "Siphon Soul", "value": 133},
		 {"source": "Emperor Thaurissan", "target": "Shadow Bolt", "value": 170},
		 {"source": "Emperor Thaurissan", "target": "Refreshment Vendor", "value": 141},
		 {"source": "Emperor Thaurissan", "target": "Shadowflame", "value": 107},
		 {"source": "Emperor Thaurissan", "target": "Earthen Ring Farseer", "value": 158},
		 {"source": "Emperor Thaurissan", "target": "Demonwrath", "value": 110},
		 {"source": "Emperor Thaurissan", "target": "Sylvanas Windrunner", "value": 121},
		 {"source": "Emperor Thaurissan", "target": "Dark Peddler", "value": 209},
		 {"source": "Emperor Thaurissan", "target": "Sunfury Protector", "value": 100},
		 {"source": "Emperor Thaurissan", "target": "Power Overwhelming", "value": 117},
		 {"source": "Emperor Thaurissan", "target": "Brann Bronzebeard", "value": 118},
		 {"source": "Emperor Thaurissan", "target": "Possessed Villager", "value": 74},
		 {"source": "Emperor Thaurissan", "target": "Imp Gang Boss", "value": 153},
		 {"source": "Emperor Thaurissan", "target": "Hellfire", "value": 152},
		 {"source": "Emperor Thaurissan", "target": "Reno Jackson", "value": 152},
		 {"source": "Emperor Thaurissan", "target": "Twilight Drake", "value": 169},
		 {"source": "Reno Jackson", "target": "Defender of Argus", "value": 163},
		 {"source": "Reno Jackson", "target": "Mortal Coil", "value": 199},
		 {"source": "Reno Jackson", "target": "Doomsayer", "value": 156},
		 {"source": "Reno Jackson", "target": "Voidwalker", "value": 54},
		 {"source": "Reno Jackson", "target": "Acidic Swamp Ooze", "value": 146},
		 {"source": "Reno Jackson", "target": "Siphon Soul", "value": 166},
		 {"source": "Reno Jackson", "target": "Shadow Bolt", "value": 196},
		 {"source": "Reno Jackson", "target": "Refreshment Vendor", "value": 151},
		 {"source": "Reno Jackson", "target": "Shadowflame", "value": 154},
		 {"source": "Reno Jackson", "target": "Earthen Ring Farseer", "value": 180},
		 {"source": "Reno Jackson", "target": "Demonwrath", "value": 152},
		 {"source": "Reno Jackson", "target": "Sylvanas Windrunner", "value": 147},
		 {"source": "Reno Jackson", "target": "Dark Peddler", "value": 222},
		 {"source": "Reno Jackson", "target": "Sunfury Protector", "value": 125},
		 {"source": "Reno Jackson", "target": "Power Overwhelming", "value": 130},
		 {"source": "Reno Jackson", "target": "Brann Bronzebeard", "value": 152},
		 {"source": "Reno Jackson", "target": "Possessed Villager", "value": 79},
		 {"source": "Reno Jackson", "target": "Imp Gang Boss", "value": 194},
		 {"source": "Reno Jackson", "target": "Hellfire", "value": 182},
		 {"source": "Reno Jackson", "target": "Emperor Thaurissan", "value": 152},
		 {"source": "Reno Jackson", "target": "Twilight Drake", "value": 188},
		 {"source": "Twilight Drake", "target": "Defender of Argus", "value": 193},
		 {"source": "Twilight Drake", "target": "Mortal Coil", "value": 260},
		 {"source": "Twilight Drake", "target": "Doomsayer", "value": 174},
		 {"source": "Twilight Drake", "target": "Voidwalker", "value": 49},
		 {"source": "Twilight Drake", "target": "Acidic Swamp Ooze", "value": 146},
		 {"source": "Twilight Drake", "target": "Siphon Soul", "value": 179},
		 {"source": "Twilight Drake", "target": "Shadow Bolt", "value": 233},
		 {"source": "Twilight Drake", "target": "Refreshment Vendor", "value": 186},
		 {"source": "Twilight Drake", "target": "Shadowflame", "value": 171},
		 {"source": "Twilight Drake", "target": "Earthen Ring Farseer", "value": 233},
		 {"source": "Twilight Drake", "target": "Soulfire", "value": 56},
		 {"source": "Twilight Drake", "target": "Demonwrath", "value": 170},
		 {"source": "Twilight Drake", "target": "Sylvanas Windrunner", "value": 162},
		 {"source": "Twilight Drake", "target": "Dark Peddler", "value": 277},
		 {"source": "Twilight Drake", "target": "Sunfury Protector", "value": 155},
		 {"source": "Twilight Drake", "target": "Power Overwhelming", "value": 133},
		 {"source": "Twilight Drake", "target": "Brann Bronzebeard", "value": 172},
		 {"source": "Twilight Drake", "target": "Possessed Villager", "value": 99},
		 {"source": "Twilight Drake", "target": "Imp Gang Boss", "value": 216},
		 {"source": "Twilight Drake", "target": "Hellfire", "value": 205},
		 {"source": "Twilight Drake", "target": "Emperor Thaurissan", "value": 169},
		 {"source": "Twilight Drake", "target": "Reno Jackson", "value": 188},
		 {"source": "Doomguard", "target": "Dark Iron Dwarf", "value": 283},
		 {"source": "Doomguard", "target": "Flame Imp", "value": 760},
		 {"source": "Doomguard", "target": "Defender of Argus", "value": 556},
		 {"source": "Doomguard", "target": "Mortal Coil", "value": 166},
		 {"source": "Doomguard", "target": "Voidwalker", "value": 805},
		 {"source": "Doomguard", "target": "Argent Horserider", "value": 90},
		 {"source": "Doomguard", "target": "Acidic Swamp Ooze", "value": 54},
		 {"source": "Doomguard", "target": "Flame Juggler", "value": 78},
		 {"source": "Doomguard", "target": "Sea Giant", "value": 148},
		 {"source": "Doomguard", "target": "Soulfire", "value": 230},
		 {"source": "Doomguard", "target": "Dire Wolf Alpha", "value": 635},
		 {"source": "Doomguard", "target": "Dark Peddler", "value": 766},
		 {"source": "Doomguard", "target": "Argent Squire", "value": 607},
		 {"source": "Doomguard", "target": "Knife Juggler", "value": 683},
		 {"source": "Doomguard", "target": "Darkshire Councilman", "value": 637},
		 {"source": "Doomguard", "target": "Abusive Sergeant", "value": 739},
		 {"source": "Doomguard", "target": "Power Overwhelming", "value": 578},
		 {"source": "Doomguard", "target": "Forbidden Ritual", "value": 521},
		 {"source": "Doomguard", "target": "Brann Bronzebeard", "value": 56},
		 {"source": "Doomguard", "target": "Possessed Villager", "value": 813},
		 {"source": "Doomguard", "target": "Imp Gang Boss", "value": 661},
		 {"source": "Doomguard", "target": "Crazed Alchemist", "value": 137},
		 {"source": "Crazed Alchemist", "target": "Dark Iron Dwarf", "value": 95},
		 {"source": "Crazed Alchemist", "target": "Flame Imp", "value": 292},
		 {"source": "Crazed Alchemist", "target": "Defender of Argus", "value": 242},
		 {"source": "Crazed Alchemist", "target": "Mortal Coil", "value": 98},
		 {"source": "Crazed Alchemist", "target": "Voidwalker", "value": 309},
		 {"source": "Crazed Alchemist", "target": "Argent Horserider", "value": 46},
		 {"source": "Crazed Alchemist", "target": "Sea Giant", "value": 73},
		 {"source": "Crazed Alchemist", "target": "Leeroy Jenkins", "value": 48},
		 {"source": "Crazed Alchemist", "target": "Soulfire", "value": 93},
		 {"source": "Crazed Alchemist", "target": "Dire Wolf Alpha", "value": 281},
		 {"source": "Crazed Alchemist", "target": "Dark Peddler", "value": 315},
		 {"source": "Crazed Alchemist", "target": "Argent Squire", "value": 182},
		 {"source": "Crazed Alchemist", "target": "Knife Juggler", "value": 280},
		 {"source": "Crazed Alchemist", "target": "Darkshire Councilman", "value": 268},
		 {"source": "Crazed Alchemist", "target": "Abusive Sergeant", "value": 285},
		 {"source": "Crazed Alchemist", "target": "Power Overwhelming", "value": 208},
		 {"source": "Crazed Alchemist", "target": "Forbidden Ritual", "value": 220},
		 {"source": "Crazed Alchemist", "target": "Possessed Villager", "value": 322},
		 {"source": "Crazed Alchemist", "target": "Imp Gang Boss", "value": 270},
		 {"source": "Crazed Alchemist", "target": "Doomguard", "value": 137}
	]
}