gr0,gr1,gr2,gr3,gr4,gr5,gr6,gr7,gr8,gr9,gr10,gr11,gr12,gr13,gr14,gr15,gr16,gr17,gr18,gr19,gr20,gr21,gr22,gr23,gr24,gr25,gr26,gr27,gr28,gr29,gr30,gr31,gr32,gr33,gr34,gr35,gr36,gr37
Dark Iron Dwarf,0.0263157894737,0.0263157894737,0.0263157894737,0.0263157894737,0.026315789472,0.0263157894737,0.0263157894737,0.0263157894737,0.0263157894737,0.0263157894737,0.0263157894737,0.0263157894737,0.0263157894737,0.0263157894737,0.0263157894737,0.0263157894737,0.0263157894737,0.0263157894737,0.0263157894737,0.0263157894737,0.00358914197844,0.0263157894737,0.0263157894737,0.0263157894737,0.0263157894737,0.0263157894737,0.0263157894737,0.0263157894737,0.0263157894737,0.0263157884194,0.0263157894736,0.0263157894737,0.0263157894737,0.0263157894737,0.0263157894737,0.0263157894737,0.0263157894737
Flame Imp,0.0263157894744,0.0263157894737,0.0263157894737,0.0263157894737,0.02631578945,0.0263157894737,0.0263157894737,0.0263157894737,0.0263157894737,0.0263157894737,0.0263157894737,0.0263157894737,0.0263157894737,0.0263157894737,0.0263157894737,0.0263157894737,0.0263157894737,0.0263157894737,0.0263157894737,0.0263157894737,0.00326319936974,0.0263157894737,0.0263157894737,0.0263157894737,0.0263157894737,0.0263157894736,0.0263157894737,0.0263157894737,0.0263157894737,0.026315781933,0.0263157894718,0.0263157894737,0.0263157894737,0.0263157894737,0.0263157894737,0.0263157894737,0.0263157894737
Defender of Argus,0.0263157894737,0.0263157894737,0.0263157894737,0.0263157894737,0.0263157894616,0.0263157894737,0.0263157894737,0.0263157894737,0.0263157894737,0.0263157894737,0.0263157894737,0.0263157894737,0.0263157894737,0.0263157894737,0.0263157894737,0.0263157894737,0.0263157894737,0.0263157894737,0.0263157894737,0.0263157894737,0.00333899427395,0.0263157894737,0.0263157894737,0.0263157894737,0.0263157894737,0.0263157894737,0.0263157894737,0.0263157894737,0.0263157894737,0.0263157842597,0.0263157894721,0.0263157894737,0.0263157894737,0.0263157894737,0.0263157894737,0.0263157894737,0.0263157894737
Mortal Coil,0.0263157894737,0.0263157894737,0.0263157894737,0.0263157894737,0.0263157894728,0.0263157894737,0.0263157894737,0.0263157894737,0.0263157894737,0.0263157894737,0.0263157894737,0.0263157894737,0.0263157894737,0.0263157894737,0.0263157894737,0.0263157894737,0.0263157894737,0.0263157894737,0.0263157894737,0.0263157894737,0.0035246192361,0.0263157894737,0.0263157894737,0.0263157894737,0.0263157894737,0.0263157894737,0.0263157894737,0.0263157894737,0.0263157894737,0.0263157884737,0.0263157894734,0.0263157894737,0.0263157894737,0.0263157894737,0.0263157894737,0.0263157894737,0.0263157894737
Doomsayer,0.0263157894737,0.0263157894737,0.0263157894737,0.0263157894737,0.0263157894743,0.0263157894737,0.0263157894737,0.0263157894737,0.0263157894737,0.0263157894737,0.0263157894737,0.0263157894737,0.0263157894737,0.0263157894737,0.0263157894737,0.0263157894737,0.0263157894737,0.0263157894737,0.0263157894737,0.0263157894737,0.00367617726174,0.0263157894737,0.0263157894737,0.0263157894737,0.0263157894737,0.0263157894737,0.0263157894737,0.0263157894737,0.0263157894737,0.0263157893434,0.0263157894736,0.0263157894737,0.0263157894737,0.0263157894737,0.0263157894737,0.0263157894737,0.0263157894737
Voidwalker,0.0263157894736,0.0263157894737,0.0263157894737,0.0263157894737,0.0263157897102,0.0263157894737,0.0263157894737,0.0263157894737,0.0263157894737,0.0263157894737,0.0263157894737,0.0263157894737,0.0263157894737,0.0263157894737,0.0263157894737,0.0263157894737,0.0263157894737,0.0263157894737,0.0263157894737,0.0263157894737,0.00322292560446,0.0263157894737,0.0263157894737,0.0263157894737,0.0263157894737,0.0263157894736,0.0263157894737,0.0263157894737,0.0263157894737,0.0263157800945,0.0263157894708,0.0263157894737,0.0263157894737,0.0263157894737,0.0263157894737,0.0263157894737,0.0263157894737
Argent Horserider,0.0263157894737,0.0263157894737,0.0263157894737,0.0263157894737,0.026315789473,0.0263157894737,0.0263157894737,0.0263157894737,0.0263157894737,0.0263157894737,0.0263157894737,0.0263157894737,0.0263157894737,0.0263157894737,0.0263157894737,0.0263157894737,0.0263157894737,0.0263157894737,0.0263157894737,0.0263157894737,0.00367544958864,0.0263157894737,0.0263157894737,0.0263157894737,0.0263157894737,0.0263157894737,0.0263157894737,0.0263157894737,0.0263157894737,0.0263157891064,0.0263157894737,0.0263157894737,0.0263157894737,0.0263157894737,0.0263157894737,0.0263157894737,0.0263157894737
Acidic Swamp Ooze,0.0263157894737,0.0263157894737,0.0263157894737,0.0263157894737,0.0263157894736,0.0263157894737,0.0263157894737,0.0263157894737,0.0263157894737,0.0263157894737,0.0263157894737,0.0263157894737,0.0263157894737,0.0263157894737,0.0263157894737,0.0263157894737,0.0263157894737,0.0263157894737,0.0263157894737,0.0263157894737,0.00366381105935,0.0263157894737,0.0263157894737,0.0263157894737,0.0263157894737,0.0263157894737,0.0263157894737,0.0263157894737,0.0263157894737,0.0263157892239,0.0263157894736,0.0263157894737,0.0263157894737,0.0263157894737,0.0263157894737,0.0263157894737,0.0263157894737
Siphon Soul,0.0263157894737,0.0263157894737,0.0263157894737,0.0263157894737,0.0263157894737,0.0263157894737,0.0263157894737,0.0263157894737,0.0263157894737,0.0263157894737,0.0263157894737,0.0263157894737,0.0263157894737,0.0263157894737,0.0263157894737,0.0263157894737,0.0263157894737,0.0263157894737,0.0263157894737,0.0263157894737,0.00367879257752,0.0263157894737,0.0263157894737,0.0263157894737,0.0263157894737,0.0263157894737,0.0263157894737,0.0263157894737,0.0263157894737,0.0263157893069,0.0263157894736,0.0263157894737,0.0263157894737,0.0263157894737,0.0263157894737,0.0263157894737,0.0263157894737
Bilefin Tidehunter,0.0263157894737,0.0263157894737,0.0263157894737,0.0263157894737,0.0263157894732,0.0263157894737,0.0263157894737,0.0263157894737,0.0263157894737,0.0263157894737,0.0263157894737,0.0263157894737,0.0263157894737,0.0263157894737,0.0263157894737,0.0263157894737,0.0263157894737,0.0263157894737,0.0263157894737,0.0263157894737,0.00369239622001,0.0263157894737,0.0263157894737,0.0263157894737,0.0263157894737,0.0263157894737,0.0263157894737,0.0263157894737,0.0263157894737,0.0263157891745,0.0263157894737,0.0263157894737,0.0263157894737,0.0263157894737,0.0263157894737,0.0263157894737,0.0263157894737
Shadow Bolt,0.0263157894737,0.0263157894737,0.0263157894737,0.0263157894737,0.0263157894738,0.0263157894737,0.0263157894737,0.0263157894737,0.0263157894737,0.0263157894737,0.0263157894737,0.0263157894737,0.0263157894737,0.0263157894737,0.0263157894737,0.0263157894737,0.0263157894737,0.0263157894737,0.0263157894737,0.0263157894737,0.00365852796632,0.0263157894737,0.0263157894737,0.0263157894737,0.0263157894737,0.0263157894737,0.0263157894737,0.0263157894737,0.0263157894737,0.0263157892336,0.0263157894735,0.0263157894737,0.0263157894737,0.0263157894737,0.0263157894737,0.0263157894737,0.0263157894737
Flame Juggler,0.0263157894737,0.0263157894737,0.0263157894737,0.0263157894737,0.0263157894732,0.0263157894737,0.0263157894737,0.0263157894737,0.0263157894737,0.0263157894737,0.0263157894737,0.0263157894737,0.0263157894737,0.0263157894737,0.0263157894737,0.0263157894737,0.0263157894737,0.0263157894737,0.0263157894737,0.0263157894737,0.00368345886254,0.0263157894737,0.0263157894737,0.0263157894737,0.0263157894737,0.0263157894737,0.0263157894737,0.0263157894737,0.0263157894737,0.026315789141,0.0263157894737,0.0263157894737,0.0263157894737,0.0263157894737,0.0263157894737,0.0263157894737,0.0263157894737
Refreshment Vendor,0.0263157894737,0.0263157894737,0.0263157894737,0.0263157894737,0.0263157894743,0.0263157894737,0.0263157894737,0.0263157894737,0.0263157894737,0.0263157894737,0.0263157894737,0.0263157894737,0.0263157894737,0.0263157894737,0.0263157894737,0.0263157894737,0.0263157894737,0.0263157894737,0.0263157894737,0.0263157894737,0.0036793505349,0.0263157894737,0.0263157894737,0.0263157894737,0.0263157894737,0.0263157894737,0.0263157894737,0.0263157894737,0.0263157894737,0.0263157893323,0.0263157894736,0.0263157894737,0.0263157894737,0.0263157894737,0.0263157894737,0.0263157894737,0.0263157894737
Sea Giant,0.0263157894737,0.0263157894737,0.0263157894737,0.0263157894737,0.0263157894722,0.0263157894737,0.0263157894737,0.0263157894737,0.0263157894737,0.0263157894737,0.0263157894737,0.0263157894737,0.0263157894737,0.0263157894737,0.0263157894737,0.0263157894737,0.0263157894737,0.0263157894737,0.0263157894737,0.0263157894737,0.00360389309863,0.0263157894737,0.0263157894737,0.0263157894737,0.0263157894737,0.0263157894737,0.0263157894737,0.0263157894737,0.0263157894737,0.0263157884918,0.0263157894736,0.0263157894737,0.0263157894737,0.0263157894737,0.0263157894737,0.0263157894737,0.0263157894737
Shadowflame,0.0263157894737,0.0263157894737,0.0263157894737,0.0263157894737,0.0263157894736,0.0263157894737,0.0263157894737,0.0263157894737,0.0263157894737,0.0263157894737,0.0263157894737,0.0263157894737,0.0263157894737,0.0263157894737,0.0263157894737,0.0263157894737,0.0263157894737,0.0263157894737,0.0263157894737,0.0263157894737,0.00368264327858,0.0263157894737,0.0263157894737,0.0263157894737,0.0263157894737,0.0263157894737,0.0263157894737,0.0263157894737,0.0263157894737,0.0263157892786,0.0263157894736,0.0263157894737,0.0263157894737,0.0263157894737,0.0263157894737,0.0263157894737,0.0263157894737
Leeroy Jenkins,0.0263157894737,0.0263157894737,0.0263157894737,0.0263157894737,0.0263157894732,0.0263157894737,0.0263157894737,0.0263157894737,0.0263157894737,0.0263157894737,0.0263157894737,0.0263157894737,0.0263157894737,0.0263157894737,0.0263157894737,0.0263157894737,0.0263157894737,0.0263157894737,0.0263157894737,0.0263157894737,0.00366290948668,0.0263157894737,0.0263157894737,0.0263157894737,0.0263157894737,0.0263157894737,0.0263157894737,0.0263157894737,0.0263157894737,0.026315789079,0.0263157894736,0.0263157894737,0.0263157894737,0.0263157894737,0.0263157894737,0.0263157894737,0.0263157894737
Earthen Ring Farseer,0.0263157894737,0.0263157894737,0.0263157894737,0.0263157894737,0.026315789474,0.0263157894737,0.0263157894737,0.0263157894737,0.0263157894737,0.0263157894737,0.0263157894737,0.0263157894737,0.0263157894737,0.0263157894737,0.0263157894737,0.0263157894737,0.0263157894737,0.0263157894737,0.0263157894737,0.0263157894737,0.00366463105432,0.0263157894737,0.0263157894737,0.0263157894737,0.0263157894737,0.0263157894737,0.0263157894737,0.0263157894737,0.0263157894737,0.0263157892816,0.0263157894735,0.0263157894737,0.0263157894737,0.0263157894737,0.0263157894737,0.0263157894737,0.0263157894737
Soulfire,0.0263157894737,0.0263157894737,0.0263157894737,0.0263157894737,0.0263157894717,0.0263157894737,0.0263157894737,0.0263157894737,0.0263157894737,0.0263157894737,0.0263157894737,0.0263157894737,0.0263157894737,0.0263157894737,0.0263157894737,0.0263157894737,0.0263157894737,0.0263157894737,0.0263157894737,0.0263157894737,0.00355128736002,0.0263157894737,0.0263157894737,0.0263157894737,0.0263157894737,0.0263157894737,0.0263157894737,0.0263157894737,0.0263157894737,0.0263157883829,0.0263157894736,0.0263157894737,0.0263157894737,0.0263157894737,0.0263157894737,0.0263157894737,0.0263157894737
Demonwrath,0.0263157894737,0.0263157894737,0.0263157894737,0.0263157894737,0.0263157894742,0.0263157894737,0.0263157894737,0.0263157894737,0.0263157894737,0.0263157894737,0.0263157894737,0.0263157894737,0.0263157894737,0.0263157894737,0.0263157894737,0.0263157894737,0.0263157894737,0.0263157894737,0.0263157894737,0.0263157894737,0.00368341805275,0.0263157894737,0.0263157894737,0.0263157894737,0.0263157894737,0.0263157894737,0.0263157894737,0.0263157894737,0.0263157894737,0.0263157892759,0.0263157894736,0.0263157894737,0.0263157894737,0.0263157894737,0.0263157894737,0.0263157894737,0.0263157894737
Sylvanas Windrunner,0.0263157894737,0.0263157894737,0.0263157894737,0.0263157894737,0.0263157894742,0.0263157894737,0.0263157894737,0.0263157894737,0.0263157894737,0.0263157894737,0.0263157894737,0.0263157894737,0.0263157894737,0.0263157894737,0.0263157894737,0.0263157894737,0.0263157894737,0.0263157894737,0.0263157894737,0.0263157894737,0.00368279927228,0.0263157894737,0.0263157894737,0.0263157894737,0.0263157894737,0.0263157894737,0.0263157894737,0.0263157894737,0.0263157894737,0.0263157892876,0.0263157894736,0.0263157894737,0.0263157894737,0.0263157894737,0.0263157894737,0.0263157894737,0.0263157894737
Dire Wolf Alpha,0.0263157894736,0.0263157894737,0.0263157894737,0.0263157894737,0.0263157894581,0.0263157894737,0.0263157894737,0.0263157894737,0.0263157894737,0.0263157894737,0.0263157894737,0.0263157894737,0.0263157894737,0.0263157894737,0.0263157894737,0.0263157894737,0.0263157894737,0.0263157894737,0.0263157894737,0.0263157894737,0.00333481751962,0.0263157894737,0.0263157894737,0.0263157894737,0.0263157894737,0.0263157894737,0.0263157894737,0.0263157894737,0.0263157894737,0.0263157837241,0.0263157894724,0.0263157894737,0.0263157894737,0.0263157894737,0.0263157894737,0.0263157894737,0.0263157894737
Dark Peddler,0.0263157894735,0.0263157894737,0.0263157894737,0.0263157894737,0.0263157894283,0.0263157894737,0.0263157894737,0.0263157894737,0.0263157894737,0.0263157894737,0.0263157894737,0.0263157894737,0.0263157894737,0.0263157894737,0.0263157894737,0.0263157894737,0.0263157894737,0.0263157894737,0.0263157894737,0.0263157894737,0.86897928814,0.0263157894737,0.0263157894737,0.0263157894737,0.0263157894737,0.0263157894736,0.0263157894737,0.0263157894737,0.0263157894737,0.0263157763055,0.0263157894678,0.0263157894737,0.0263157894737,0.0263157894737,0.0263157894737,0.0263157894737,0.0263157894737
Argent Squire,0.0263157894737,0.0263157894737,0.0263157894737,0.0263157894737,0.0263157894677,0.0263157894737,0.0263157894737,0.0263157894737,0.0263157894737,0.0263157894737,0.0263157894737,0.0263157894737,0.0263157894737,0.0263157894737,0.0263157894737,0.0263157894737,0.0263157894737,0.0263157894737,0.0263157894737,0.0263157894737,0.00343697842285,0.0263157894737,0.0263157894737,0.0263157894737,0.0263157894737,0.0263157894737,0.0263157894737,0.0263157894737,0.0263157894737,0.0263157862113,0.0263157894733,0.0263157894737,0.0263157894737,0.0263157894737,0.0263157894737,0.0263157894737,0.0263157894737
Knife Juggler,0.0263157894736,0.0263157894737,0.0263157894737,0.0263157894737,0.0263157894572,0.0263157894737,0.0263157894737,0.0263157894737,0.0263157894737,0.0263157894737,0.0263157894737,0.0263157894737,0.0263157894737,0.0263157894737,0.0263157894737,0.0263157894737,0.0263157894737,0.0263157894737,0.0263157894737,0.0263157894737,0.00332136089761,0.0263157894737,0.0263157894737,0.0263157894737,0.0263157894737,0.0263157894737,0.0263157894737,0.0263157894737,0.0263157894737,0.0263157833522,0.0263157894722,0.0263157894737,0.0263157894737,0.0263157894737,0.0263157894737,0.0263157894737,0.0263157894737
Sunfury Protector,0.0263157894737,0.0263157894737,0.0263157894737,0.0263157894737,0.0263157894742,0.0263157894737,0.0263157894737,0.0263157894737,0.0263157894737,0.0263157894737,0.0263157894737,0.0263157894737,0.0263157894737,0.0263157894737,0.0263157894737,0.0263157894737,0.0263157894737,0.0263157894737,0.0263157894737,0.0263157894737,0.00369008732522,0.0263157894737,0.0263157894737,0.0263157894737,0.0263157894737,0.0263157894737,0.0263157894737,0.0263157894737,0.0263157894737,0.0263157892637,0.0263157894736,0.0263157894737,0.0263157894737,0.0263157894737,0.0263157894737,0.0263157894737,0.0263157894737
Darkshire Councilman,0.0263157894736,0.0263157894737,0.0263157894737,0.0263157894737,0.0263157894583,0.0263157894737,0.0263157894737,0.0263157894737,0.0263157894737,0.0263157894737,0.0263157894737,0.0263157894737,0.0263157894737,0.0263157894737,0.0263157894737,0.0263157894737,0.0263157894737,0.0263157894737,0.0263157894737,0.0263157894737,0.00332868645301,0.0263157894737,0.0263157894737,0.0263157894737,0.0263157894737,0.0263157894737,0.0263157894737,0.0263157894737,0.0263157894737,0.0263157833945,0.0263157894724,0.0263157894737,0.0263157894737,0.0263157894737,0.0263157894737,0.0263157894737,0.0263157894737
Abusive Sergeant,0.0263157894736,0.0263157894737,0.0263157894737,0.0263157894737,0.0263157894525,0.0263157894737,0.0263157894737,0.0263157894737,0.0263157894737,0.0263157894737,0.0263157894737,0.0263157894737,0.0263157894737,0.0263157894737,0.0263157894737,0.0263157894737,0.0263157894737,0.0263157894737,0.0263157894737,0.0263157894737,0.00328291405857,0.0263157894737,0.0263157894737,0.0263157894737,0.0263157894737,0.0263157894741,0.0263157894737,0.0263157894737,0.0263157894737,0.0263157821111,0.0263157894718,0.0263157894737,0.0263157894737,0.0263157894737,0.0263157894737,0.0263157894737,0.0263157894737
Power Overwhelming,0.0263157894737,0.0263157894737,0.0263157894737,0.0263157894737,0.0263157894638,0.0263157894737,0.0263157894737,0.0263157894737,0.0263157894737,0.0263157894737,0.0263157894737,0.0263157894737,0.0263157894737,0.0263157894737,0.0263157894737,0.0263157894737,0.0263157894737,0.0263157894737,0.0263157894737,0.0263157894737,0.00335748993377,0.0263157894737,0.0263157894737,0.0263157894737,0.0263157894737,0.0263157894737,0.0263157894737,0.0263157894737,0.0263157894737,0.0263157848092,0.0263157894726,0.0263157894737,0.0263157894737,0.0263157894737,0.0263157894737,0.0263157894737,0.0263157894737
Forbidden Ritual,0.0263157894737,0.0263157894737,0.0263157894737,0.0263157894737,0.0263157894655,0.0263157894737,0.0263157894737,0.0263157894737,0.0263157894737,0.0263157894737,0.0263157894737,0.0263157894737,0.0263157894737,0.0263157894737,0.0263157894737,0.0263157894737,0.0263157894737,0.0263157894737,0.0263157894737,0.0263157894737,0.00342835101358,0.0263157894737,0.0263157894737,0.0263157894737,0.0263157894737,0.0263157894737,0.0263157894737,0.0263157894737,0.0263157894737,0.0263157859527,0.0263157894731,0.0263157894737,0.0263157894737,0.0263157894737,0.0263157894737,0.0263157894737,0.0263157894737
Brann Bronzebeard,0.0263157894737,0.0263157894737,0.0263157894737,0.0263157894737,0.0263157894732,0.0263157894737,0.0263157894737,0.0263157894737,0.0263157894737,0.0263157894737,0.0263157894737,0.0263157894737,0.0263157894737,0.0263157894737,0.0263157894737,0.0263157894737,0.0263157894737,0.0263157894737,0.0263157894737,0.0263157894737,0.00363033230935,0.0263157894737,0.0263157894737,0.0263157894737,0.0263157894737,0.0263157894737,0.0263157894737,0.0263157894737,0.0263157894737,0.0263157891137,0.0263157894735,0.0263157894737,0.0263157894737,0.0263157894737,0.0263157894737,0.0263157894737,0.0263157894737
Possessed Villager,0.0263157894736,0.0263157894737,0.0263157894737,0.0263157894737,0.0263157894414,0.0263157894737,0.0263157894737,0.0263157894737,0.0263157894737,0.0263157894737,0.0263157894737,0.0263157894737,0.0263157894737,0.0263157894737,0.0263157894737,0.0263157894737,0.0263157894737,0.0263157894737,0.0263157894737,0.0263157894737,0.0032068433091,0.0263157894737,0.0263157894737,0.0263157894737,0.0263157894737,0.0263157894736,0.0263157894737,0.0263157894737,0.0263157894737,0.0263158805077,0.0263157894699,0.0263157894737,0.0263157894737,0.0263157894737,0.0263157894737,0.0263157894737,0.0263157894737
Imp Gang Boss,0.0263157894736,0.0263157894737,0.0263157894737,0.0263157894737,0.0263157894518,0.0263157894737,0.0263157894737,0.0263157894737,0.0263157894737,0.0263157894737,0.0263157894737,0.0263157894737,0.0263157894737,0.0263157894737,0.0263157894737,0.0263157894737,0.0263157894737,0.0263157894737,0.0263157894737,0.0263157894737,0.00325231076681,0.0263157894737,0.0263157894737,0.0263157894737,0.0263157894737,0.0263157894736,0.0263157894737,0.0263157894737,0.0263157894737,0.0263157812422,0.0263157895005,0.0263157894737,0.0263157894737,0.0263157894737,0.0263157894737,0.0263157894737,0.0263157894737
Hellfire,0.0263157894737,0.0263157894737,0.0263157894737,0.0263157894737,0.0263157894736,0.0263157894737,0.0263157894737,0.0263157894737,0.0263157894737,0.0263157894737,0.0263157894737,0.0263157894737,0.0263157894737,0.0263157894737,0.0263157894737,0.0263157894737,0.0263157894737,0.0263157894737,0.0263157894737,0.0263157894737,0.00366232448115,0.0263157894737,0.0263157894737,0.0263157894737,0.0263157894737,0.0263157894737,0.0263157894737,0.0263157894737,0.0263157894737,0.0263157892564,0.0263157894735,0.0263157894737,0.0263157894737,0.0263157894737,0.0263157894737,0.0263157894737,0.0263157894737
Emperor Thaurissan,0.0263157894737,0.0263157894737,0.0263157894737,0.0263157894737,0.0263157894743,0.0263157894737,0.0263157894737,0.0263157894737,0.0263157894737,0.0263157894737,0.0263157894737,0.0263157894737,0.0263157894737,0.0263157894737,0.0263157894737,0.0263157894737,0.0263157894737,0.0263157894737,0.0263157894737,0.0263157894737,0.00367742967911,0.0263157894737,0.0263157894737,0.0263157894737,0.0263157894737,0.0263157894737,0.0263157894737,0.0263157894737,0.0263157894737,0.0263157892881,0.0263157894736,0.0263157894737,0.0263157894737,0.0263157894737,0.0263157894737,0.0263157894737,0.0263157894737
Reno Jackson,0.0263157894737,0.0263157894737,0.0263157894737,0.0263157894737,0.0263157894738,0.0263157894737,0.0263157894737,0.0263157894737,0.0263157894737,0.0263157894737,0.0263157894737,0.0263157894737,0.0263157894737,0.0263157894737,0.0263157894737,0.0263157894737,0.0263157894737,0.0263157894737,0.0263157894737,0.0263157894737,0.00367435152328,0.0263157894737,0.0263157894737,0.0263157894737,0.0263157894737,0.0263157894737,0.0263157894737,0.0263157894737,0.0263157894737,0.0263157893111,0.0263157894735,0.0263157894737,0.0263157894737,0.0263157894737,0.0263157894737,0.0263157894737,0.0263157894737
Twilight Drake,0.0263157894737,0.0263157894737,0.0263157894737,0.0263157894737,0.026315789474,0.0263157894737,0.0263157894737,0.0263157894737,0.0263157894737,0.0263157894737,0.0263157894737,0.0263157894737,0.0263157894737,0.0263157894737,0.0263157894737,0.0263157894737,0.0263157894737,0.0263157894737,0.0263157894737,0.0263157894737,0.00365947783052,0.0263157894737,0.0263157894737,0.0263157894737,0.0263157894737,0.0263157894737,0.0263157894737,0.0263157894737,0.0263157894737,0.0263157892728,0.0263157894735,0.0263157894737,0.0263157894737,0.0263157894737,0.0263157894737,0.0263157894737,0.0263157894737
Doomguard,0.0263157894737,0.0263157894737,0.0263157894737,0.0263157894737,0.0263157894706,0.0263157894737,0.0263157894737,0.0263157894737,0.0263157894737,0.0263157894737,0.0263157894737,0.0263157894737,0.0263157894737,0.0263157894737,0.0263157894737,0.0263157894737,0.0263157894737,0.0263157894737,0.0263157894737,0.0263157894737,0.00354208671908,0.0263157894737,0.0263157894737,0.0263157894737,0.0263157894737,0.0263157894737,0.0263157894737,0.0263157894737,0.0263157894737,0.0263157878262,0.0263157894735,0.0263157894737,0.0263157894737,0.0263157894737,0.0263157894737,0.0263157894737,0.0263157894737
Crazed Alchemist,0.0263157894737,0.0263157894737,0.0263157894737,0.0263157894737,0.026315789473,0.0263157894737,0.0263157894737,0.0263157894737,0.0263157894737,0.0263157894737,0.0263157894737,0.0263157894737,0.0263157894737,0.0263157894737,0.0263157894737,0.0263157894737,0.0263157894737,0.0263157894737,0.0263157894737,0.0263157894737,0.00365644348026,0.0263157894737,0.0263157894737,0.0263157894737,0.0263157894737,0.0263157894737,0.0263157894737,0.0263157894737,0.0263157894737,0.0263157889377,0.0263157894736,0.0263157894737,0.0263157894737,0.0263157894737,0.0263157894737,0.0263157894737,0.0263157894737
