gr0,gr1,gr2,gr3,gr4,gr5,gr6,gr7,gr8,gr9,gr10,gr11,gr12,gr13,gr14,gr15,gr16,gr17,gr18,gr19,gr20,gr21,gr22,gr23,gr24,gr25,gr26,gr27,gr28,gr29,gr30,gr31,gr32,gr33,gr34,gr35,gr36,gr37
Dark Iron Dwarf,0.00775261111024,0.011224814114,0.0253187812966,0.0261558625089,0.005446945446,0.0261398853712,0.0261034469472,0.0261518926741,0.0261717117436,0.026124331508,0.0261555862452,0.0261534983507,0.0258916581036,0.0261589573453,0.0261252726773,0.0261294763437,0.02562076616,0.0261608678023,0.0261612818602,0.0116547941394,0.00303165688535,0.021453343683,0.0107876335112,0.0261665746546,0.011422422995,0.00810872993679,0.0143166200478,0.0196308337882,0.026016439512,0.0045545931233,0.00606970424603,0.0299100201921,0.0261566999654,0.0261400180052,0.0261205181018,0.025299008713,0.0260956032582
Flame Imp,0.713918078359,0.0106518793114,0.0251626390933,0.0261583943843,0.00497131037721,0.0261091795689,0.0260910188222,0.026154870669,0.0261527235277,0.0261287527853,0.0261293054246,0.0261561378522,0.0258014513958,0.0261618417482,0.0260926935161,0.0261334206052,0.0254336964499,0.0261633431633,0.0261637022582,0.0109544659542,0.0027481962421,0.0208545501094,0.0101128695682,0.0261687067995,0.0107582249048,0.00752650637625,0.0137267737176,0.0189782515174,0.0259874337386,0.004167445003,0.00564912941314,0.0261581139055,0.0261593656131,0.0261434316345,0.0261247696733,0.0250556773346,0.0260527425041
Defender of Argus,0.00739174203787,0.588019663237,0.0251247338799,0.0261321480085,0.00514247156814,0.0261171620802,0.0260727932798,0.0261267548741,0.0261604776307,0.0260878653958,0.026143011662,0.0261252926077,0.0258234632875,0.0261327226517,0.0260980896631,0.0260919258306,0.0255021111221,0.026137361359,0.0261358818485,0.0112268983619,0.00281403140389,0.0210455245903,0.010372327553,0.0261454381391,0.0109864703458,0.00773348594091,0.0138195906356,0.0191996454357,0.0259491284725,0.00427704119565,0.00571569981036,0.0261668314395,0.0261303531269,0.0261064880791,0.0260778759203,0.0251640994056,0.0260639000341
Mortal Coil,0.00781721515127,0.0111670963217,0.0659851318011,0.026124315882,0.00547971664455,0.0261375835686,0.0260768477793,0.0261177874483,0.0261701791717,0.0260771804672,0.0261561866383,0.0261202041898,0.0259114884006,0.0261303255541,0.0261163105596,0.0260835685083,0.0256020947803,0.0261316631126,0.0261336890255,0.0117408163175,0.00297549451308,0.0215536984684,0.0108781796515,0.0261400863969,0.0115080114658,0.00816331158005,0.0142684716765,0.0197317794944,0.0259797969103,0.00456868323003,0.00602191199183,0.026197820281,0.026125763405,0.0261037972208,0.0260693491212,0.0253513568147,0.0260938998359
Doomsayer,0.00802737590358,0.0114052192017,0.0252858506964,0.0326894504833,0.00565932324741,0.0261483498697,0.0260895540851,0.0261288736251,0.026176975544,0.0260937483214,0.0261624139931,0.0261306157444,0.0259357374453,0.0261406179892,0.0261337021159,0.0261013610051,0.0256798486628,0.0261405480178,0.0261431642311,0.0119823447068,0.0031076156563,0.0217444138784,0.0111080728237,0.0261502919841,0.0117513984861,0.00839073407323,0.0145234546405,0.0199504368945,0.0260025765275,0.00472153062322,0.0062005072463,0.0262108891919,0.0261361291848,0.0261136089741,0.0260887403712,0.0254112908591,0.026109643481
Voidwalker,0.00710528491353,0.010577578834,0.0251308216401,0.0261590510847,0.799577291395,0.0261051267575,0.026084153434,0.0261422543262,0.0261505518566,0.0261110846466,0.0261288883511,0.0261568166793,0.0257781222326,0.0261479316329,0.0260878492036,0.0261219413458,0.0254211354786,0.0261639701734,0.0261643177303,0.0108933524604,0.00271327331875,0.0208044788926,0.0100542379874,0.0261692611223,0.010681576746,0.00747494205256,0.0135971941573,0.0188757742972,0.0259677023604,0.00412289420298,0.00558636969711,0.026150408665,0.0261600380733,0.0261308128741,0.0261127297705,0.0250248587756,0.0260472297377
Argent Horserider,0.00792091117963,0.0113738547522,0.0253383920165,0.0261552622805,0.00557276660462,0.0329932745142,0.0261126325399,0.0261511856177,0.0261776016895,0.0261232809839,0.0261632963572,0.0261528701651,0.0259392260928,0.026158270643,0.026134875816,0.0261285444544,0.0256403216952,0.0261602782578,0.0261607064198,0.0118536329447,0.00310694529555,0.0216619298559,0.011007377749,0.02616606824,0.011639213877,0.00827071872313,0.0144942222559,0.0198391908631,0.0260221157707,0.00467091785998,0.00619076506222,0.0262112644743,0.0261560643779,0.026139201177,0.0261195145741,0.0253775896579,0.0261025361884
Acidic Swamp Ooze,0.0079720850533,0.0113662831499,0.0252872249186,0.0261360757197,0.00560695333135,0.0261490358531,0.03459424864,0.0261316387147,0.0261773837196,0.0260944365676,0.0261629753653,0.0261317022572,0.0259379791374,0.0261403671908,0.0261344917668,0.0261029404493,0.0256600694671,0.0261432050227,0.026144601328,0.0119358273957,0.00309681079774,0.0216918075098,0.0110552458534,0.0261515554651,0.0116992390187,0.00833126138275,0.0144723100098,0.0198884028043,0.0260031937363,0.00469146501376,0.00616749551473,0.0262074972105,0.0261367645225,0.0261149410468,0.0260934872598,0.0253910577297,0.0261106547667
Siphon Soul,0.008028120046,0.0114019052786,0.0252809332194,0.0261333730929,0.00563739842839,0.0261484112442,0.0260895724291,0.0328713531292,0.0261770135112,0.0260910389914,0.0261624618302,0.0261321919048,0.0259359352423,0.0261413966692,0.0261337747269,0.0261013482167,0.0256801527729,0.0261406850519,0.0261422242063,0.0119832526245,0.00310989365429,0.0217452855962,0.0111089503317,0.026151030481,0.0117522991667,0.00839149080025,0.0145165330115,0.0199513931074,0.026001461855,0.00471647107111,0.00619197610492,0.0262109504527,0.0261357968386,0.0261119038218,0.026087812017,0.0254117079711,0.0261097319768
Bilefin Tidehunter,0.00795166851062,0.0114159182193,0.0253465315711,0.0261551412411,0.0055983971697,0.0261489081158,0.0261122344946,0.0261510432388,0.0317297190047,0.0261230615464,0.0261629053651,0.0261527425213,0.0259204225085,0.0261581328945,0.0261343214698,0.0261283472553,0.0256643422817,0.0261601590645,0.0261605902556,0.0119003283072,0.00312173987536,0.0217002907752,0.0110294052921,0.0261659663344,0.0116574731295,0.0083214189074,0.0145257472186,0.0198683988595,0.0260215477386,0.00469067832557,0.00621812416609,0.0262124164456,0.0261559364209,0.0261390362342,0.0261193013377,0.0254152874742,0.0261104972985
Shadow Bolt,0.00803021494086,0.0113769787355,0.0252596099483,0.0261292058337,0.00563291429654,0.0261485894557,0.0260822707613,0.0261221840909,0.0261771194884,0.0341054143869,0.0261625941602,0.0261284933812,0.0259364888668,0.0261371780774,0.0261340059,0.0260963993621,0.0256603461645,0.0261363074363,0.026138022446,0.0119857780012,0.00309222005966,0.021747767774,0.0111113917887,0.0261443648184,0.0117548231946,0.00839364612396,0.0144893423668,0.0199540364971,0.0259955139892,0.00470462227445,0.00616620098574,0.0262094336902,0.0261299078706,0.0261067548041,0.0260778681096,0.0254128449201,0.0261099824148
Flame Juggler,0.00793186029923,0.0114077566933,0.0253490376048,0.0261551774328,0.00558696818401,0.0261491812965,0.0261124271482,0.0261510882517,0.026177478952,0.0261231335988,0.0323713361263,0.0261527809936,0.0259225904455,0.0261581771221,0.0261346198178,0.026128407408,0.0256610478109,0.0261601975099,0.0261606248038,0.0118704069487,0.00311393630836,0.0216497865373,0.0110095082785,0.02616599716,0.0116401186699,0.00830090241783,0.0145101555161,0.0198448989964,0.0260325447859,0.00467977219923,0.0062011354024,0.0262118060755,0.0261559767776,0.0261390877999,0.0261193655907,0.0253818678101,0.0261109171915
Refreshment Vendor,0.00802755323923,0.0113919709567,0.0252821848717,0.0261332340741,0.00565946960609,0.0261483639849,0.0260875018946,0.0261303190882,0.0261769830906,0.0260959090202,0.0261624238837,0.03279522697,0.0259357830719,0.0261401542317,0.0261337211263,0.0260981885907,0.0256799243003,0.0261414723675,0.0261416255979,0.0119825658013,0.00311038191926,0.0217446364221,0.0111082870572,0.0261492440677,0.0117516231298,0.00839092448519,0.0145167060229,0.0199506749999,0.0260035315441,0.00472026848755,0.00619633125284,0.0262107706524,0.0261345553729,0.0261144551931,0.0260865526151,0.025411389263,0.0261096652375
Sea Giant,0.00781073496809,0.0112480286456,0.0253286277112,0.0261557331584,0.00547275917002,0.0261513213242,0.0261141527809,0.0261517416399,0.0261694003125,0.0261241077716,0.0261556117319,0.0261533620509,0.0422651698086,0.0261588117431,0.0261208056985,0.0261292767228,0.025628560173,0.026160742603,0.0261611601575,0.0117092231016,0.00304452139081,0.0215331926039,0.0108333178526,0.0261664665892,0.0114741216656,0.00815137309315,0.0143601245254,0.0196585944458,0.0260174453336,0.0045723962323,0.00609201633253,0.026202188459,0.0261565640577,0.0261398432809,0.026120305575,0.0253611341134,0.0260994813127
Shadowflame,0.00802804666991,0.011396419431,0.0252929151621,0.0261374503268,0.00563455331894,0.0261484046702,0.0260908573925,0.0261338186018,0.026177009234,0.0260990947677,0.0261624574592,0.0261343985512,0.0259359197636,0.0325595473423,0.0261337636835,0.0261022003556,0.0256800849498,0.0261448238821,0.0261434376119,0.0119831714175,0.00311325164087,0.0217452184987,0.011108867945,0.0261504113825,0.011752220837,0.00839140903863,0.0145071584047,0.0199513188406,0.0260035374758,0.0047143364283,0.00619921228834,0.0262118891162,0.0261398579314,0.0261139124309,0.026089237361,0.0254116819858,0.0261097232944
Leeroy Jenkins,0.00792024026331,0.0113646567663,0.0253239155556,0.0261553757194,0.00557116220451,0.0261495959962,0.0261128396984,0.026151308844,0.0261777430034,0.0261234601149,0.0261634578713,0.0261529884766,0.0259146809577,0.026158387576,0.0336420067744,0.026128708747,0.0256399647627,0.0261603877157,0.0261608133242,0.0118442869347,0.00309600515362,0.0216538476377,0.0109814399093,0.0261661631375,0.011625291877,0.00826729430079,0.0144294686385,0.0198250779638,0.0260179481398,0.00466269829279,0.00616611935495,0.0262116838349,0.0261561831815,0.0261393440868,0.0261196888916,0.0254199669049,0.0261023900635
Earthen Ring Farseer,0.00802950338902,0.0113722540957,0.0252603400197,0.0261308132939,0.00564165799284,0.0261485318323,0.0260850918621,0.0261262599931,0.0261770836364,0.0260905027636,0.0261625465807,0.0261252676358,0.0259362966764,0.0261348102566,0.0261339335401,0.0338716537666,0.0256593115956,0.026137719322,0.0261380309605,0.0119849183454,0.00309754269452,0.0217469254733,0.0111105530805,0.0261427067737,0.0117539668064,0.00839292404367,0.0144901293431,0.0199531369532,0.0259954564842,0.00471077960025,0.00617997666337,0.0262095547713,0.0261318283427,0.0261095006504,0.0260778833737,0.0254124439396,0.0261098954861
Soulfire,0.0077320839849,0.0112020658663,0.0252753446357,0.0261561857963,0.0054282978606,0.0261312441851,0.0261027368529,0.0261522388858,0.0261717954478,0.0261141193347,0.0261555038079,0.0261538293074,0.0258980194954,0.0261592709548,0.026115424096,0.0261190469474,0.0531409840785,0.0261611668616,0.0261615754987,0.0116408568451,0.00299868501329,0.0214753297879,0.0108041826527,0.0261668421184,0.0114353871454,0.0081035417957,0.0142758525872,0.0196353339142,0.0260062257783,0.0045458789609,0.00604831920307,0.0262001216816,0.0261570243355,0.0261404107349,0.0261097717173,0.0253252305378,0.0260961827552
Demonwrath,0.00802733427146,0.011404481329,0.0252904287148,0.0261351175289,0.00565927198159,0.0261483449502,0.0260915938462,0.0261307889139,0.0261769711442,0.0260955267685,0.0261624121556,0.0261334695623,0.0259357304611,0.0261426251661,0.0261336944125,0.02610292497,0.0256798026408,0.032468707955,0.0261459134029,0.0119823100215,0.00311392933303,0.0217443843944,0.0111080395557,0.0261517765092,0.0117513634338,0.00839069155276,0.0145241563248,0.0199504032129,0.0260069906958,0.00471595580767,0.00619530280136,0.0262113393588,0.0261394103053,0.0261142715492,0.0260894484148,0.0254112799591,0.0261096414496
Sylvanas Windrunner,0.00802724137976,0.0113983426732,0.025294550256,0.0261373121363,0.00565919438086,0.0261483388768,0.0260927008785,0.0261319005694,0.0261769683049,0.0260969472805,0.0261624053508,0.0261331446848,0.0259357075947,0.02614075781,0.0261336855246,0.0261027414054,0.0256797606621,0.0261454524829,0.0324496275229,0.0119821946383,0.00311339015834,0.0217442753328,0.0111079241317,0.0261492318943,0.0117512509742,0.008390595621,0.0145194104217,0.0199502881109,0.0260037099158,0.00471727316792,0.0062051152425,0.0262115010961,0.0261376789535,0.0261151060421,0.0260908923904,0.0254112280515,0.0261096284584
Dire Wolf Alpha,0.00726872164449,0.010753538337,0.025194991342,0.0261578712626,0.00505948901649,0.0261138069491,0.026100626937,0.026154264461,0.0261583250497,0.0261278581965,0.0261343202769,0.0261555976045,0.0258109567875,0.0261612577902,0.0260946088151,0.0261326208114,0.0254716689226,0.0261628403036,0.0261632082289,0.569812331365,0.00281036728415,0.0209374213085,0.0102388402077,0.0261682732949,0.0108601158152,0.00761737216636,0.0138091689723,0.019072826784,0.0259961063922,0.00422990150936,0.00571383073626,0.0261661332581,0.0261588212015,0.0261427402297,0.0261239064438,0.0251282196301,0.0260560038151
Dark Peddler,0.00710094187497,0.0104643935984,0.0249375326962,0.0261079898754,0.00490912592086,0.0261036365292,0.0260482241954,0.0261058067577,0.0261490021592,0.0260542919637,0.0261261419598,0.0261080916517,0.0257701965705,0.0261173628144,0.0260754662996,0.0260663571608,0.0253700598851,0.0261201554114,0.0261200691797,0.0109181540123,0.889370367878,0.0207690406662,0.0100653267224,0.0261323035517,0.0106851875266,0.00747101266001,0.0134585953531,0.0189217257599,0.0259164018033,0.00407852291257,0.00549303086308,0.0261372593905,0.0261101127421,0.0260879870808,0.0260506131258,0.0250319517039,0.0260416622552
Argent Squire,0.00749119347293,0.0109317768707,0.0252574137778,0.0261569968064,0.00523680593207,0.0261318455073,0.0261004972131,0.0261532228485,0.02617017371,0.0261263138834,0.0261437076639,0.0261546862891,0.0258589280405,0.0261602516232,0.0261143496053,0.0261312462725,0.0255478013072,0.0261619835067,0.0261623732021,0.0113233953202,0.00289915907458,0.207257694755,0.0104634454068,0.0261675376102,0.0111090623621,0.00784507297553,0.0139950714667,0.0193430311132,0.0260171847851,0.004355147661,0.00587118364591,0.0261811176357,0.0261579036194,0.0261415499428,0.0261224238537,0.0251441459185,0.0260796414257
Knife Juggler,0.00725242975291,0.0107336126162,0.0251946405188,0.0261579762865,0.00504689919912,0.0261211053462,0.0260974673271,0.0261543846028,0.0261581244701,0.0261280283722,0.0261368240982,0.0261557067427,0.0258025857308,0.0261613721736,0.0260962250451,0.0261327695392,0.0254859580985,0.026162943715,0.0261633072587,0.011065378253,0.00279868067877,0.0209113026387,0.601777654798,0.02616835969,0.0108369601214,0.00762243106757,0.0138033149573,0.0189642231754,0.0259956195488,0.0042151290895,0.00568988680161,0.0261642830236,0.0261589305439,0.0261428784609,0.0261240685698,0.0251012744216,0.0260562287958
Sunfury Protector,0.00802677045198,0.0114105739816,0.0252957232435,0.0261387020299,0.00565880182023,0.02614829894,0.0260941482619,0.0261350753558,0.0261769435988,0.02609745107,0.0261623763045,0.0261350294186,0.0259355808879,0.0261419785957,0.0261336328197,0.026101313995,0.0256795507587,0.0261455816945,0.0261434390225,0.0119816308625,0.00311974690059,0.021743719877,0.0111073746636,0.0322122003358,0.0117506850658,0.00839011446171,0.014523477863,0.0199496970642,0.0260082962355,0.00471660643435,0.00621205729766,0.0262113601121,0.0261409416149,0.0261187830198,0.0260921333008,0.0254109756169,0.0261095730444
Darkshire Councilman,0.00728423602152,0.010734356084,0.0251910911541,0.0261579424907,0.00506196737571,0.0261186468577,0.0260984295524,0.0261543401951,0.0261546198355,0.0261279629855,0.0261341046625,0.0261556733266,0.0258069894881,0.0261613332967,0.0260981160617,0.0261327181783,0.0254859211518,0.026162910207,0.0261632787687,0.0110790149409,0.00280504238408,0.0209475702815,0.0102295249557,0.0261683366113,0.57826538299,0.0076375075615,0.013768762282,0.0190186427531,0.025994952961,0.00421695744307,0.00571065708943,0.0261650800496,0.0261588989276,0.0261428297804,0.0261240090913,0.0251270979819,0.0260592739099
Abusive Sergeant,0.00719345864896,0.0106536257841,0.0251523538586,0.0261583873029,0.00499984279644,0.0261050038707,0.0260899478936,0.0261548501221,0.0261561539233,0.0261287119817,0.0261329505288,0.0261561360564,0.0257911503536,0.0261618178742,0.0260870755,0.0261333953535,0.0254501150562,0.026163337517,0.0261636970636,0.0109713273527,0.00276530863885,0.0208708011109,0.0101561999049,0.0261687081587,0.0107801061726,0.700743010326,0.0136902831011,0.0190045517791,0.0259822640796,0.00417506234089,0.00565247156094,0.0261553035303,0.0261593604032,0.0261434159054,0.0261247379113,0.0250674099911,0.0260544864629
Power Overwhelming,0.00745847014058,0.0108194867401,0.0251544295196,0.0261376645938,0.00517193264922,0.0261247784056,0.0260773270744,0.0261315100925,0.0261628813407,0.0260936951392,0.0261439317646,0.0261332900582,0.0258412900766,0.026136591978,0.0260902240183,0.026099580331,0.0255072721346,0.026143198587,0.0261423790716,0.0112854744538,0.0028300901578,0.0210938389983,0.0104423254496,0.0261491174153,0.0110287627028,0.00777700403485,0.473834704747,0.019234871138,0.0259776190782,0.0042966763247,0.00576214668504,0.026172815852,0.0261348811066,0.0261142798195,0.0260927591954,0.0251532043852,0.0260726583059
Forbidden Ritual,0.00745752227701,0.0109070405192,0.0252445751963,0.0261571433933,0.00518999080069,0.0261256469014,0.0260985517211,0.0261534085725,0.0261624291,0.0261265866891,0.0261419914517,0.0261548403582,0.0258300429586,0.0261604314088,0.0261063754565,0.0261314885425,0.0255289183273,0.0261621269735,0.0261625136013,0.0112854155674,0.00289165432126,0.0211544534281,0.0103672398582,0.0261676612569,0.0110221276359,0.007815892351,0.0139536558013,0.274963573099,0.0260006984605,0.00433826673033,0.00583898099291,0.0261785495103,0.0261580562051,0.0261417625851,0.0261226836292,0.025189384448,0.026070884081
Brann Bronzebeard,0.00793714420684,0.0112852187258,0.0252710092425,0.026135166107,0.00556678662641,0.0261418854055,0.0260890363172,0.0261299040402,0.0261709767302,0.0260948862057,0.0261635201706,0.026133249524,0.0259185778913,0.0261390311342,0.0261235819786,0.0261006546083,0.0256386924697,0.0261436421066,0.0261418406767,0.011881982259,0.00306760941076,0.0216882478349,0.0110114397891,0.026150753324,0.0116495359617,0.00828840467385,0.0144376596545,0.0198421349659,0.0381151197979,0.00466336662638,0.00613228734186,0.0262047415694,0.0261376711165,0.0261135922659,0.02608830759,0.0253941221748,0.026111661016
Possessed Villager,0.00712989815842,0.0105331790905,0.025098685482,0.026145733343,0.00493747688132,0.0261075866434,0.0260802984175,0.02613819589,0.0261513942169,0.0261005426437,0.0261290279093,0.0261424277649,0.0257674636674,0.026144152751,0.0260853880503,0.0261106026776,0.0254243586025,0.0261471633417,0.0261484675925,0.0108989181637,0.00269934343213,0.0207386694543,0.0100513705921,0.0261535090364,0.0106550407089,0.00747300127824,0.0135311818496,0.0188732508414,0.0259689974835,0.83263485401,0.00554632227785,0.026147022179,0.0261429628485,0.0261248726715,0.0260997368204,0.0250159418505,0.026042706567
Imp Gang Boss,0.00727193847583,0.0106014305836,0.0250672127312,0.02612529798,0.00503761722555,0.0261159050828,0.0260596597687,0.0261163155581,0.0261599891128,0.0260701967085,0.0261364616625,0.0261204332857,0.0258038302352,0.0261280855675,0.0260859452691,0.0260842204887,0.0254599192129,0.0261281327738,0.0261337094948,0.0110673976811,0.00273879471394,0.0209455523723,0.0102027211828,0.0261430569164,0.0108434288495,0.00761213257447,0.0136524006704,0.0190611280159,0.0259442369647,0.00417721478241,0.77781380811,0.0261549988251,0.0261256589766,0.0260976484943,0.0260702952583,0.0251024495332,0.0260561192961
Hellfire,0.00803054460719,0.0113705087672,0.0252648170316,0.0261318941637,0.00562511894298,0.0261486245514,0.0260894592479,0.0261272076473,0.0261771358539,0.026087551732,0.0261626163181,0.0261286191943,0.0259365808637,0.0261391997732,0.0261340338785,0.0260945714587,0.0256562740563,0.0261394050347,0.0261406466331,0.0119861921925,0.00309552878874,0.0217481450045,0.011111766792,0.0261461690144,0.0117552075158,0.00835997103974,0.0144951076699,0.019954439367,0.0259962313667,0.00470587534248,0.00617677662189,0.0272015122487,0.0261327489373,0.0261091202267,0.0260830031609,0.0254130252803,0.0261100200712
Emperor Thaurissan,0.00802763246309,0.0113967425583,0.0252873147883,0.0261352840462,0.00565952510629,0.0261483701946,0.0260893747091,0.0261304770266,0.0261769874745,0.0260935660474,0.0261624306487,0.0261310914844,0.0259358084086,0.0261421735638,0.0261337291311,0.0261015336417,0.0256799487335,0.0261439362681,0.0261427011444,0.0119826642323,0.00310870683153,0.0217447432966,0.0111083811513,0.0261516395456,0.011751724075,0.00839100253526,0.0145098444662,0.0199507801372,0.0260049343146,0.00471615992003,0.00619940048784,0.0262109234239,0.0326550611138,0.0261142815435,0.0260896460717,0.0254114439923,0.0261096762131
Reno Jackson,0.00802874002179,0.0113803235557,0.0252797499543,0.0261313062615,0.00563866692212,0.0261484627714,0.0260854611896,0.0261251421616,0.0261770446413,0.0260888677037,0.0261624991884,0.026129473497,0.0259361014161,0.0261348279704,0.0261338442974,0.0260976414881,0.0256804421652,0.026137423934,0.0261386670438,0.0119840037134,0.00310601954537,0.0217460348434,0.0111096808477,0.0261478744791,0.0117530577213,0.00839214176697,0.0145009721259,0.0199521910026,0.0259970556568,0.00471515872459,0.00618249842131,0.0262099999059,0.0261327946268,0.0334003888087,0.0260861769767,0.0254120487416,0.0261098051836
Twilight Drake,0.00802988621161,0.0113611119525,0.025251520358,0.0261284061328,0.00564154442333,0.0261485658578,0.0260854842063,0.0261229942617,0.026177104661,0.0260821075566,0.0261625711001,0.0261237968862,0.0259364010925,0.0261321110755,0.0261339753613,0.0260881637753,0.0256594341109,0.026134581433,0.0261363052256,0.0119853761861,0.00309304919271,0.0217473708005,0.0111109999175,0.026143301793,0.0117544230429,0.00839331517955,0.0144998746086,0.019953609705,0.02599240225,0.00470893275681,0.00617374368842,0.0262093143308,0.0261300676805,0.026108128513,0.0342696259049,0.0254126436046,0.0261099432966
Doomguard,0.00766797137254,0.0111529996086,0.0253084102571,0.0261561808319,0.00536937902481,0.0261367135525,0.0261043112938,0.0261522760886,0.0261799114487,0.0261249042035,0.0261530162793,0.0261538315889,0.0259055824561,0.0261593337941,0.0261393579448,0.0261299814053,0.0256078082934,0.0261611835801,0.0261615894492,0.0115898361041,0.00299065119302,0.0212947584895,0.0107028614145,0.0261668471461,0.0113625275386,0.00802986683212,0.014193921503,0.0195617198166,0.0260239125958,0.00448797977365,0.00600841612107,0.0261936759144,0.0261570413455,0.0261404583743,0.0261210588567,0.0642647112398,0.0260879710733
Crazed Alchemist,0.00789259452666,0.011342913014,0.0253305342352,0.0261553771063,0.00555020612845,0.0261422831178,0.0261130191071,0.0261513211217,0.0261779126601,0.0261234798966,0.0261637276527,0.0261529913821,0.0259200620868,0.0261584022163,0.026127028379,0.0261287179821,0.0256515307047,0.026160394451,0.0261608168533,0.0118100820719,0.00309035826004,0.0216199470187,0.0109450337726,0.0261661667523,0.0115901663249,0.0082548442691,0.0144585813858,0.0197897324858,0.0260336654612,0.00464248651816,0.00616108847673,0.0262094082465,0.0261561883335,0.026139356638,0.0261197020531,0.0253589472648,0.0346977384421
