gr0,gr1,gr2,gr3,gr4,gr5,gr6,gr7,gr8,gr9,gr10,gr11,gr12,gr13,gr14,gr15,gr16,gr17,gr18,gr19,gr20,gr21,gr22,gr23,gr24,gr25,gr26,gr27,gr28,gr29,gr30,gr31,gr32,gr33,gr34,gr35,gr36,gr37
Dark Iron Dwarf,0.0263157894737,0.0263157894737,0.0263157894737,0.0263157894737,0.0263157894737,0.0263157894737,0.0263157894737,0.0263157894737,0.0263157894737,0.0263157894737,0.0263157894737,0.0263157894737,0.0263157894737,0.0263157894737,0.0263157894737,0.0263157894737,0.0263157894737,0.0263157894737,0.0263157894737,0.0263157894737,0.00359139846205,0.0263157894737,0.0263157894737,0.0263157894737,0.0263157894737,0.0263157894737,0.0263157894737,0.0263157894737,0.0263157894737,0.0263157894737,0.0263157894737,0.0263157894737,0.0263157894737,0.0263157894737,0.0263157894737,0.0263157894737,0.0263157894737
Flame Imp,0.0263157894737,0.0263157894737,0.0263157894737,0.0263157894737,0.0263157894737,0.0263157894737,0.0263157894737,0.0263157894737,0.0263157894737,0.0263157894737,0.0263157894737,0.0263157894737,0.0263157894737,0.0263157894737,0.0263157894737,0.0263157894737,0.0263157894737,0.0263157894737,0.0263157894737,0.0263157894737,0.0032652874662,0.0263157894737,0.0263157894737,0.0263157894737,0.0263157894737,0.0263157894737,0.0263157894737,0.0263157894737,0.0263157894737,0.0263157894737,0.0263157894737,0.0263157894737,0.0263157894737,0.0263157894737,0.0263157894737,0.0263157894737,0.0263157894737
Defender of Argus,0.0263157894737,0.0263157894737,0.0263157894737,0.0263157894737,0.0263157894737,0.0263157894737,0.0263157894737,0.0263157894737,0.0263157894737,0.0263157894737,0.0263157894737,0.0263157894737,0.0263157894737,0.0263157894737,0.0263157894737,0.0263157894737,0.0263157894737,0.0263157894737,0.0263157894737,0.0263157894737,0.00334112188084,0.0263157894737,0.0263157894737,0.0263157894737,0.0263157894737,0.0263157894737,0.0263157894737,0.0263157894737,0.0263157894737,0.0263157894737,0.0263157894737,0.0263157894737,0.0263157894737,0.0263157894737,0.0263157894737,0.0263157894737,0.0263157894737
Mortal Coil,0.0263157894737,0.0263157894737,0.0263157894737,0.0263157894737,0.0263157894737,0.0263157894737,0.0263157894737,0.0263157894737,0.0263157894737,0.0263157894737,0.0263157894737,0.0263157894737,0.0263157894737,0.0263157894737,0.0263157894737,0.0263157894737,0.0263157894737,0.0263157894737,0.0263157894737,0.0263157894737,0.00352684260111,0.0263157894737,0.0263157894737,0.0263157894737,0.0263157894737,0.0263157894737,0.0263157894737,0.0263157894737,0.0263157894737,0.0263157894737,0.0263157894737,0.0263157894737,0.0263157894737,0.0263157894737,0.0263157894737,0.0263157894737,0.0263157894737
Doomsayer,0.0263157894737,0.0263157894737,0.0263157894737,0.0263157894737,0.0263157894737,0.0263157894737,0.0263157894737,0.0263157894737,0.0263157894737,0.0263157894737,0.0263157894737,0.0263157894737,0.0263157894737,0.0263157894737,0.0263157894737,0.0263157894737,0.0263157894737,0.0263157894737,0.0263157894737,0.0263157894737,0.00367847754453,0.0263157894737,0.0263157894737,0.0263157894737,0.0263157894737,0.0263157894737,0.0263157894737,0.0263157894737,0.0263157894737,0.0263157894737,0.0263157894737,0.0263157894737,0.0263157894737,0.0263157894737,0.0263157894737,0.0263157894737,0.0263157894737
Voidwalker,0.0263157894737,0.0263157894737,0.0263157894737,0.0263157894737,0.0263157894737,0.0263157894737,0.0263157894737,0.0263157894737,0.0263157894737,0.0263157894737,0.0263157894737,0.0263157894737,0.0263157894737,0.0263157894737,0.0263157894737,0.0263157894737,0.0263157894737,0.0263157894737,0.0263157894737,0.0263157894737,0.00322499245008,0.0263157894737,0.0263157894737,0.0263157894737,0.0263157894737,0.0263157894737,0.0263157894737,0.0263157894737,0.0263157894737,0.0263157894737,0.0263157894737,0.0263157894737,0.0263157894737,0.0263157894737,0.0263157894737,0.0263157894737,0.0263157894737
Argent Horserider,0.0263157894737,0.0263157894737,0.0263157894737,0.0263157894737,0.0263157894737,0.0263157894737,0.0263157894737,0.0263157894737,0.0263157894737,0.0263157894737,0.0263157894737,0.0263157894737,0.0263157894737,0.0263157894737,0.0263157894737,0.0263157894737,0.0263157894737,0.0263157894737,0.0263157894737,0.0263157894737,0.0036777496589,0.0263157894737,0.0263157894737,0.0263157894737,0.0263157894737,0.0263157894737,0.0263157894737,0.0263157894737,0.0263157894737,0.0263157894737,0.0263157894737,0.0263157894737,0.0263157894737,0.0263157894737,0.0263157894737,0.0263157894737,0.0263157894737
Acidic Swamp Ooze,0.0263157894737,0.0263157894737,0.0263157894737,0.0263157894737,0.0263157894737,0.0263157894737,0.0263157894737,0.0263157894737,0.0263157894737,0.0263157894737,0.0263157894737,0.0263157894737,0.0263157894737,0.0263157894737,0.0263157894737,0.0263157894737,0.0263157894737,0.0263157894737,0.0263157894737,0.0263157894737,0.00366610517312,0.0263157894737,0.0263157894737,0.0263157894737,0.0263157894737,0.0263157894737,0.0263157894737,0.0263157894737,0.0263157894737,0.0263157894737,0.0263157894737,0.0263157894737,0.0263157894737,0.0263157894737,0.0263157894737,0.0263157894737,0.0263157894737
Siphon Soul,0.0263157894737,0.0263157894737,0.0263157894737,0.0263157894737,0.0263157894737,0.0263157894737,0.0263157894737,0.0263157894737,0.0263157894737,0.0263157894737,0.0263157894737,0.0263157894737,0.0263157894737,0.0263157894737,0.0263157894737,0.0263157894737,0.0263157894737,0.0263157894737,0.0263157894737,0.0263157894737,0.00368109419596,0.0263157894737,0.0263157894737,0.0263157894737,0.0263157894737,0.0263157894737,0.0263157894737,0.0263157894737,0.0263157894737,0.0263157894737,0.0263157894737,0.0263157894737,0.0263157894737,0.0263157894737,0.0263157894737,0.0263157894737,0.0263157894737
Bilefin Tidehunter,0.0263157894737,0.0263157894737,0.0263157894737,0.0263157894737,0.0263157894737,0.0263157894737,0.0263157894737,0.0263157894737,0.0263157894737,0.0263157894737,0.0263157894737,0.0263157894737,0.0263157894737,0.0263157894737,0.0263157894737,0.0263157894737,0.0263157894737,0.0263157894737,0.0263157894737,0.0263157894737,0.00369470479826,0.0263157894737,0.0263157894737,0.0263157894737,0.0263157894737,0.0263157894737,0.0263157894737,0.0263157894737,0.0263157894737,0.0263157894737,0.0263157894737,0.0263157894737,0.0263157894737,0.0263157894737,0.0263157894737,0.0263157894737,0.0263157894737
Shadow Bolt,0.0263157894737,0.0263157894737,0.0263157894737,0.0263157894737,0.0263157894737,0.0263157894737,0.0263157894737,0.0263157894737,0.0263157894737,0.0263157894737,0.0263157894737,0.0263157894737,0.0263157894737,0.0263157894737,0.0263157894737,0.0263157894737,0.0263157894737,0.0263157894737,0.0263157894737,0.0263157894737,0.00366081933432,0.0263157894737,0.0263157894737,0.0263157894737,0.0263157894737,0.0263157894737,0.0263157894737,0.0263157894737,0.0263157894737,0.0263157894737,0.0263157894737,0.0263157894737,0.0263157894737,0.0263157894737,0.0263157894737,0.0263157894737,0.0263157894737
Flame Juggler,0.0263157894737,0.0263157894737,0.0263157894737,0.0263157894737,0.0263157894737,0.0263157894737,0.0263157894737,0.0263157894737,0.0263157894737,0.0263157894737,0.0263157894737,0.0263157894737,0.0263157894737,0.0263157894737,0.0263157894737,0.0263157894737,0.0263157894737,0.0263157894737,0.0263157894737,0.0263157894737,0.00368576295889,0.0263157894737,0.0263157894737,0.0263157894737,0.0263157894737,0.0263157894737,0.0263157894737,0.0263157894737,0.0263157894737,0.0263157894737,0.0263157894737,0.0263157894737,0.0263157894737,0.0263157894737,0.0263157894737,0.0263157894737,0.0263157894737
Refreshment Vendor,0.0263157894737,0.0263157894737,0.0263157894737,0.0263157894737,0.0263157894737,0.0263157894737,0.0263157894737,0.0263157894737,0.0263157894737,0.0263157894737,0.0263157894737,0.0263157894737,0.0263157894737,0.0263157894737,0.0263157894737,0.0263157894737,0.0263157894737,0.0263157894737,0.0263157894737,0.0263157894737,0.0036816524284,0.0263157894737,0.0263157894737,0.0263157894737,0.0263157894737,0.0263157894737,0.0263157894737,0.0263157894737,0.0263157894737,0.0263157894737,0.0263157894737,0.0263157894737,0.0263157894737,0.0263157894737,0.0263157894737,0.0263157894737,0.0263157894737
Sea Giant,0.0263157894737,0.0263157894737,0.0263157894737,0.0263157894737,0.0263157894737,0.0263157894737,0.0263157894737,0.0263157894737,0.0263157894737,0.0263157894737,0.0263157894737,0.0263157894737,0.0263157894737,0.0263157894737,0.0263157894737,0.0263157894737,0.0263157894737,0.0263157894737,0.0263157894737,0.0263157894737,0.00360615704603,0.0263157894737,0.0263157894737,0.0263157894737,0.0263157894737,0.0263157894737,0.0263157894737,0.0263157894737,0.0263157894737,0.0263157894737,0.0263157894737,0.0263157894737,0.0263157894737,0.0263157894737,0.0263157894737,0.0263157894737,0.0263157894737
Shadowflame,0.0263157894737,0.0263157894737,0.0263157894737,0.0263157894737,0.0263157894737,0.0263157894737,0.0263157894737,0.0263157894737,0.0263157894737,0.0263157894737,0.0263157894737,0.0263157894737,0.0263157894737,0.0263157894737,0.0263157894737,0.0263157894737,0.0263157894737,0.0263157894737,0.0263157894737,0.0263157894737,0.00368494684642,0.0263157894737,0.0263157894737,0.0263157894737,0.0263157894737,0.0263157894737,0.0263157894737,0.0263157894737,0.0263157894737,0.0263157894737,0.0263157894737,0.0263157894737,0.0263157894737,0.0263157894737,0.0263157894737,0.0263157894737,0.0263157894737
Leeroy Jenkins,0.0263157894737,0.0263157894737,0.0263157894737,0.0263157894737,0.0263157894737,0.0263157894737,0.0263157894737,0.0263157894737,0.0263157894737,0.0263157894737,0.0263157894737,0.0263157894737,0.0263157894737,0.0263157894737,0.0263157894737,0.0263157894737,0.0263157894737,0.0263157894737,0.0263157894737,0.0263157894737,0.00366520322864,0.0263157894737,0.0263157894737,0.0263157894737,0.0263157894737,0.0263157894737,0.0263157894737,0.0263157894737,0.0263157894737,0.0263157894737,0.0263157894737,0.0263157894737,0.0263157894737,0.0263157894737,0.0263157894737,0.0263157894737,0.0263157894737
Earthen Ring Farseer,0.0263157894737,0.0263157894737,0.0263157894737,0.0263157894737,0.0263157894737,0.0263157894737,0.0263157894737,0.0263157894737,0.0263157894737,0.0263157894737,0.0263157894737,0.0263157894737,0.0263157894737,0.0263157894737,0.0263157894737,0.0263157894737,0.0263157894737,0.0263157894737,0.0263157894737,0.0263157894737,0.00366692550995,0.0263157894737,0.0263157894737,0.0263157894737,0.0263157894737,0.0263157894737,0.0263157894737,0.0263157894737,0.0263157894737,0.0263157894737,0.0263157894737,0.0263157894737,0.0263157894737,0.0263157894737,0.0263157894737,0.0263157894737,0.0263157894737
Soulfire,0.0263157894737,0.0263157894737,0.0263157894737,0.0263157894737,0.0263157894737,0.0263157894737,0.0263157894737,0.0263157894737,0.0263157894737,0.0263157894737,0.0263157894737,0.0263157894737,0.0263157894737,0.0263157894737,0.0263157894737,0.0263157894737,0.0263157894737,0.0263157894737,0.0263157894737,0.0263157894737,0.00355352451003,0.0263157894737,0.0263157894737,0.0263157894737,0.0263157894737,0.0263157894737,0.0263157894737,0.0263157894737,0.0263157894737,0.0263157894737,0.0263157894737,0.0263157894737,0.0263157894737,0.0263157894737,0.0263157894737,0.0263157894737,0.0263157894737
Demonwrath,0.0263157894737,0.0263157894737,0.0263157894737,0.0263157894737,0.0263157894737,0.0263157894737,0.0263157894737,0.0263157894737,0.0263157894737,0.0263157894737,0.0263157894737,0.0263157894737,0.0263157894737,0.0263157894737,0.0263157894737,0.0263157894737,0.0263157894737,0.0263157894737,0.0263157894737,0.0263157894737,0.00368572200387,0.0263157894737,0.0263157894737,0.0263157894737,0.0263157894737,0.0263157894737,0.0263157894737,0.0263157894737,0.0263157894737,0.0263157894737,0.0263157894737,0.0263157894737,0.0263157894737,0.0263157894737,0.0263157894737,0.0263157894737,0.0263157894737
Sylvanas Windrunner,0.0263157894737,0.0263157894737,0.0263157894737,0.0263157894737,0.0263157894737,0.0263157894737,0.0263157894737,0.0263157894737,0.0263157894737,0.0263157894737,0.0263157894737,0.0263157894737,0.0263157894737,0.0263157894737,0.0263157894737,0.0263157894737,0.0263157894737,0.0263157894737,0.0263157894737,0.0263157894737,0.00368510290827,0.0263157894737,0.0263157894737,0.0263157894737,0.0263157894737,0.0263157894737,0.0263157894737,0.0263157894737,0.0263157894737,0.0263157894737,0.0263157894737,0.0263157894737,0.0263157894737,0.0263157894737,0.0263157894737,0.0263157894737,0.0263157894737
Dire Wolf Alpha,0.0263157894737,0.0263157894737,0.0263157894737,0.0263157894737,0.0263157894737,0.0263157894737,0.0263157894737,0.0263157894737,0.0263157894737,0.0263157894737,0.0263157894737,0.0263157894737,0.0263157894737,0.0263157894737,0.0263157894737,0.0263157894737,0.0263157894737,0.0263157894737,0.0263157894737,0.0263157894737,0.00333694310747,0.0263157894737,0.0263157894737,0.0263157894737,0.0263157894737,0.0263157894737,0.0263157894737,0.0263157894737,0.0263157894737,0.0263157894737,0.0263157894737,0.0263157894737,0.0263157894737,0.0263157894737,0.0263157894737,0.0263157894737,0.0263157894737
Dark Peddler,0.0263157894737,0.0263157894737,0.0263157894737,0.0263157894737,0.0263157894737,0.0263157894737,0.0263157894737,0.0263157894737,0.0263157894737,0.0263157894737,0.0263157894737,0.0263157894737,0.0263157894737,0.0263157894737,0.0263157894737,0.0263157894737,0.0263157894737,0.0263157894737,0.0263157894737,0.0263157894737,0.868896734813,0.0263157894737,0.0263157894737,0.0263157894737,0.0263157894737,0.0263157894737,0.0263157894737,0.0263157894737,0.0263157894737,0.0263157894737,0.0263157894737,0.0263157894737,0.0263157894737,0.0263157894737,0.0263157894737,0.0263157894737,0.0263157894737
Argent Squire,0.0263157894737,0.0263157894737,0.0263157894737,0.0263157894737,0.0263157894737,0.0263157894737,0.0263157894737,0.0263157894737,0.0263157894737,0.0263157894737,0.0263157894737,0.0263157894737,0.0263157894737,0.0263157894737,0.0263157894737,0.0263157894737,0.0263157894737,0.0263157894737,0.0263157894737,0.0263157894737,0.00343915702357,0.0263157894737,0.0263157894737,0.0263157894737,0.0263157894737,0.0263157894737,0.0263157894737,0.0263157894737,0.0263157894737,0.0263157894737,0.0263157894737,0.0263157894737,0.0263157894737,0.0263157894737,0.0263157894737,0.0263157894737,0.0263157894737
Knife Juggler,0.0263157894737,0.0263157894737,0.0263157894737,0.0263157894737,0.0263157894737,0.0263157894737,0.0263157894737,0.0263157894737,0.0263157894737,0.0263157894737,0.0263157894737,0.0263157894737,0.0263157894737,0.0263157894737,0.0263157894737,0.0263157894737,0.0263157894737,0.0263157894737,0.0263157894737,0.0263157894737,0.0033234794631,0.0263157894737,0.0263157894737,0.0263157894737,0.0263157894737,0.0263157894737,0.0263157894737,0.0263157894737,0.0263157894737,0.0263157894737,0.0263157894737,0.0263157894737,0.0263157894737,0.0263157894737,0.0263157894737,0.0263157894737,0.0263157894737
Sunfury Protector,0.0263157894737,0.0263157894737,0.0263157894737,0.0263157894737,0.0263157894737,0.0263157894737,0.0263157894737,0.0263157894737,0.0263157894737,0.0263157894737,0.0263157894737,0.0263157894737,0.0263157894737,0.0263157894737,0.0263157894737,0.0263157894737,0.0263157894737,0.0263157894737,0.0263157894737,0.0263157894737,0.00369239464541,0.0263157894737,0.0263157894737,0.0263157894737,0.0263157894737,0.0263157894737,0.0263157894737,0.0263157894737,0.0263157894737,0.0263157894737,0.0263157894737,0.0263157894737,0.0263157894737,0.0263157894737,0.0263157894737,0.0263157894737,0.0263157894737
Darkshire Councilman,0.0263157894737,0.0263157894737,0.0263157894737,0.0263157894737,0.0263157894737,0.0263157894737,0.0263157894737,0.0263157894737,0.0263157894737,0.0263157894737,0.0263157894737,0.0263157894737,0.0263157894737,0.0263157894737,0.0263157894737,0.0263157894737,0.0263157894737,0.0263157894737,0.0263157894737,0.0263157894737,0.00333080884259,0.0263157894737,0.0263157894737,0.0263157894737,0.0263157894737,0.0263157894737,0.0263157894737,0.0263157894737,0.0263157894737,0.0263157894737,0.0263157894737,0.0263157894737,0.0263157894737,0.0263157894737,0.0263157894737,0.0263157894737,0.0263157894737
Abusive Sergeant,0.0263157894737,0.0263157894737,0.0263157894737,0.0263157894737,0.0263157894737,0.0263157894737,0.0263157894737,0.0263157894737,0.0263157894737,0.0263157894737,0.0263157894737,0.0263157894737,0.0263157894737,0.0263157894737,0.0263157894737,0.0263157894737,0.0263157894737,0.0263157894737,0.0263157894737,0.0263157894737,0.0032850124831,0.0263157894737,0.0263157894737,0.0263157894737,0.0263157894737,0.0263157894737,0.0263157894737,0.0263157894737,0.0263157894737,0.0263157894737,0.0263157894737,0.0263157894737,0.0263157894737,0.0263157894737,0.0263157894737,0.0263157894737,0.0263157894737
Power Overwhelming,0.0263157894737,0.0263157894737,0.0263157894737,0.0263157894737,0.0263157894737,0.0263157894737,0.0263157894737,0.0263157894737,0.0263157894737,0.0263157894737,0.0263157894737,0.0263157894737,0.0263157894737,0.0263157894737,0.0263157894737,0.0263157894737,0.0263157894737,0.0263157894737,0.0263157894737,0.0263157894737,0.00335962721047,0.0263157894737,0.0263157894737,0.0263157894737,0.0263157894737,0.0263157894737,0.0263157894737,0.0263157894737,0.0263157894737,0.0263157894737,0.0263157894737,0.0263157894737,0.0263157894737,0.0263157894737,0.0263157894737,0.0263157894737,0.0263157894737
Forbidden Ritual,0.0263157894737,0.0263157894737,0.0263157894737,0.0263157894737,0.0263157894737,0.0263157894737,0.0263157894737,0.0263157894737,0.0263157894737,0.0263157894737,0.0263157894737,0.0263157894737,0.0263157894737,0.0263157894737,0.0263157894737,0.0263157894737,0.0263157894737,0.0263157894737,0.0263157894737,0.0263157894737,0.00343052516519,0.0263157894737,0.0263157894737,0.0263157894737,0.0263157894737,0.0263157894737,0.0263157894737,0.0263157894737,0.0263157894737,0.0263157894737,0.0263157894737,0.0263157894737,0.0263157894737,0.0263157894737,0.0263157894737,0.0263157894737,0.0263157894737
Brann Bronzebeard,0.0263157894737,0.0263157894737,0.0263157894737,0.0263157894737,0.0263157894737,0.0263157894737,0.0263157894737,0.0263157894737,0.0263157894737,0.0263157894737,0.0263157894737,0.0263157894737,0.0263157894737,0.0263157894737,0.0263157894737,0.0263157894737,0.0263157894737,0.0263157894737,0.0263157894737,0.0263157894737,0.00363260950262,0.0263157894737,0.0263157894737,0.0263157894737,0.0263157894737,0.0263157894737,0.0263157894737,0.0263157894737,0.0263157894737,0.0263157894737,0.0263157894737,0.0263157894737,0.0263157894737,0.0263157894737,0.0263157894737,0.0263157894737,0.0263157894737
Possessed Villager,0.0263157894737,0.0263157894737,0.0263157894737,0.0263157894737,0.0263157894737,0.0263157894737,0.0263157894737,0.0263157894737,0.0263157894737,0.0263157894737,0.0263157894737,0.0263157894737,0.0263157894737,0.0263157894737,0.0263157894737,0.0263157894737,0.0263157894737,0.0263157894737,0.0263157894737,0.0263157894737,0.00320890160001,0.0263157894737,0.0263157894737,0.0263157894737,0.0263157894737,0.0263157894737,0.0263157894737,0.0263157894737,0.0263157894737,0.0263157894737,0.0263157894737,0.0263157894737,0.0263157894737,0.0263157894737,0.0263157894737,0.0263157894737,0.0263157894737
Imp Gang Boss,0.0263157894737,0.0263157894737,0.0263157894737,0.0263157894737,0.0263157894737,0.0263157894737,0.0263157894737,0.0263157894737,0.0263157894737,0.0263157894737,0.0263157894737,0.0263157894737,0.0263157894737,0.0263157894737,0.0263157894737,0.0263157894737,0.0263157894737,0.0263157894737,0.0263157894737,0.0263157894737,0.00325439294109,0.0263157894737,0.0263157894737,0.0263157894737,0.0263157894737,0.0263157894737,0.0263157894737,0.0263157894737,0.0263157894737,0.0263157894737,0.0263157894737,0.0263157894737,0.0263157894737,0.0263157894737,0.0263157894737,0.0263157894737,0.0263157894737
Hellfire,0.0263157894737,0.0263157894737,0.0263157894737,0.0263157894737,0.0263157894737,0.0263157894737,0.0263157894737,0.0263157894737,0.0263157894737,0.0263157894737,0.0263157894737,0.0263157894737,0.0263157894737,0.0263157894737,0.0263157894737,0.0263157894737,0.0263157894737,0.0263157894737,0.0263157894737,0.0263157894737,0.00366461777984,0.0263157894737,0.0263157894737,0.0263157894737,0.0263157894737,0.0263157894737,0.0263157894737,0.0263157894737,0.0263157894737,0.0263157894737,0.0263157894737,0.0263157894737,0.0263157894737,0.0263157894737,0.0263157894737,0.0263157894737,0.0263157894737
Emperor Thaurissan,0.0263157894737,0.0263157894737,0.0263157894737,0.0263157894737,0.0263157894737,0.0263157894737,0.0263157894737,0.0263157894737,0.0263157894737,0.0263157894737,0.0263157894737,0.0263157894737,0.0263157894737,0.0263157894737,0.0263157894737,0.0263157894737,0.0263157894737,0.0263157894737,0.0263157894737,0.0263157894737,0.00367973060025,0.0263157894737,0.0263157894737,0.0263157894737,0.0263157894737,0.0263157894737,0.0263157894737,0.0263157894737,0.0263157894737,0.0263157894737,0.0263157894737,0.0263157894737,0.0263157894737,0.0263157894737,0.0263157894737,0.0263157894737,0.0263157894737
Reno Jackson,0.0263157894737,0.0263157894737,0.0263157894737,0.0263157894737,0.0263157894737,0.0263157894737,0.0263157894737,0.0263157894737,0.0263157894737,0.0263157894737,0.0263157894737,0.0263157894737,0.0263157894737,0.0263157894737,0.0263157894737,0.0263157894737,0.0263157894737,0.0263157894737,0.0263157894737,0.0263157894737,0.00367665089915,0.0263157894737,0.0263157894737,0.0263157894737,0.0263157894737,0.0263157894737,0.0263157894737,0.0263157894737,0.0263157894737,0.0263157894737,0.0263157894737,0.0263157894737,0.0263157894737,0.0263157894737,0.0263157894737,0.0263157894737,0.0263157894737
Twilight Drake,0.0263157894737,0.0263157894737,0.0263157894737,0.0263157894737,0.0263157894737,0.0263157894737,0.0263157894737,0.0263157894737,0.0263157894737,0.0263157894737,0.0263157894737,0.0263157894737,0.0263157894737,0.0263157894737,0.0263157894737,0.0263157894737,0.0263157894737,0.0263157894737,0.0263157894737,0.0263157894737,0.00366176967586,0.0263157894737,0.0263157894737,0.0263157894737,0.0263157894737,0.0263157894737,0.0263157894737,0.0263157894737,0.0263157894737,0.0263157894737,0.0263157894737,0.0263157894737,0.0263157894737,0.0263157894737,0.0263157894737,0.0263157894737,0.0263157894737
Doomguard,0.0263157894737,0.0263157894737,0.0263157894737,0.0263157894737,0.0263157894737,0.0263157894737,0.0263157894737,0.0263157894737,0.0263157894737,0.0263157894737,0.0263157894737,0.0263157894737,0.0263157894737,0.0263157894737,0.0263157894737,0.0263157894737,0.0263157894737,0.0263157894737,0.0263157894737,0.0263157894737,0.00354431925702,0.0263157894737,0.0263157894737,0.0263157894737,0.0263157894737,0.0263157894737,0.0263157894737,0.0263157894737,0.0263157894737,0.0263157894737,0.0263157894737,0.0263157894737,0.0263157894737,0.0263157894737,0.0263157894737,0.0263157894737,0.0263157894737
Crazed Alchemist,0.0263157894737,0.0263157894737,0.0263157894737,0.0263157894737,0.0263157894737,0.0263157894737,0.0263157894737,0.0263157894737,0.0263157894737,0.0263157894737,0.0263157894737,0.0263157894737,0.0263157894737,0.0263157894737,0.0263157894737,0.0263157894737,0.0263157894737,0.0263157894737,0.0263157894737,0.0263157894737,0.00365873398475,0.0263157894737,0.0263157894737,0.0263157894737,0.0263157894737,0.0263157894737,0.0263157894737,0.0263157894737,0.0263157894737,0.0263157894737,0.0263157894737,0.0263157894737,0.0263157894737,0.0263157894737,0.0263157894737,0.0263157894737,0.0263157894737
