gr0,gr1,gr2,gr3,gr4,gr5,gr6,gr7,gr8,gr9,gr10,gr11,gr12,gr13,gr14,gr15,gr16,gr17,gr18,gr19,gr20,gr21,gr22,gr23,gr24,gr25,gr26,gr27,gr28,gr29,gr30,gr31,gr32,gr33,gr34,gr35,gr36,gr37
Dark Iron Dwarf,0.0263157894737,0.0263157894737,0.0263157894737,0.0263157894737,0.0263157894737,0.0263157894737,0.0263157894737,0.0263157894737,0.0263157894737,0.0263157894737,0.0263157894737,0.0263157894737,0.0263157894737,0.0263157894737,0.0263157894737,0.0263157894737,0.0263157894737,0.0263157894737,0.0263157894737,0.0263157894737,0.00359139851091,0.0263157894737,0.0263157894737,0.0263157894737,0.0263157894737,0.0263157894737,0.0263157894737,0.0263157894737,0.0263157894737,0.0263157894737,0.0263157894737,0.0263157894737,0.0263157894737,0.0263157894737,0.0263157894737,0.0263157894737,0.0263157894737
Flame Imp,0.0263157894737,0.0263157894737,0.0263157894737,0.0263157894737,0.0263157894737,0.0263157894737,0.0263157894737,0.0263157894737,0.0263157894737,0.0263157894737,0.0263157894737,0.0263157894737,0.0263157894737,0.0263157894737,0.0263157894737,0.0263157894737,0.0263157894737,0.0263157894737,0.0263157894737,0.0263157894737,0.00326528751142,0.0263157894737,0.0263157894737,0.0263157894737,0.0263157894737,0.0263157894737,0.0263157894737,0.0263157894737,0.0263157894737,0.0263157894737,0.0263157894737,0.0263157894737,0.0263157894737,0.0263157894737,0.0263157894737,0.0263157894737,0.0263157894737
Defender of Argus,0.0263157894737,0.0263157894737,0.0263157894737,0.0263157894737,0.0263157894737,0.0263157894737,0.0263157894737,0.0263157894737,0.0263157894737,0.0263157894737,0.0263157894737,0.0263157894737,0.0263157894737,0.0263157894737,0.0263157894737,0.0263157894737,0.0263157894737,0.0263157894737,0.0263157894737,0.0263157894737,0.0033411219269,0.0263157894737,0.0263157894737,0.0263157894737,0.0263157894737,0.0263157894737,0.0263157894737,0.0263157894737,0.0263157894737,0.0263157894737,0.0263157894737,0.0263157894737,0.0263157894737,0.0263157894737,0.0263157894737,0.0263157894737,0.0263157894737
Mortal Coil,0.0263157894737,0.0263157894737,0.0263157894737,0.0263157894737,0.0263157894737,0.0263157894737,0.0263157894737,0.0263157894737,0.0263157894737,0.0263157894737,0.0263157894737,0.0263157894737,0.0263157894737,0.0263157894737,0.0263157894737,0.0263157894737,0.0263157894737,0.0263157894737,0.0263157894737,0.0263157894737,0.00352684264926,0.0263157894737,0.0263157894737,0.0263157894737,0.0263157894737,0.0263157894737,0.0263157894737,0.0263157894737,0.0263157894737,0.0263157894737,0.0263157894737,0.0263157894737,0.0263157894737,0.0263157894737,0.0263157894737,0.0263157894737,0.0263157894737
Doomsayer,0.0263157894737,0.0263157894737,0.0263157894737,0.0263157894737,0.0263157894737,0.0263157894737,0.0263157894737,0.0263157894737,0.0263157894737,0.0263157894737,0.0263157894737,0.0263157894737,0.0263157894737,0.0263157894737,0.0263157894737,0.0263157894737,0.0263157894737,0.0263157894737,0.0263157894737,0.0263157894737,0.00367847759434,0.0263157894737,0.0263157894737,0.0263157894737,0.0263157894737,0.0263157894737,0.0263157894737,0.0263157894737,0.0263157894737,0.0263157894737,0.0263157894737,0.0263157894737,0.0263157894737,0.0263157894737,0.0263157894737,0.0263157894737,0.0263157894737
Voidwalker,0.0263157894737,0.0263157894737,0.0263157894737,0.0263157894737,0.0263157894737,0.0263157894737,0.0263157894737,0.0263157894737,0.0263157894737,0.0263157894737,0.0263157894737,0.0263157894737,0.0263157894737,0.0263157894737,0.0263157894737,0.0263157894737,0.0263157894737,0.0263157894737,0.0263157894737,0.0263157894737,0.00322499249483,0.0263157894737,0.0263157894737,0.0263157894737,0.0263157894737,0.0263157894737,0.0263157894737,0.0263157894737,0.0263157894737,0.0263157894737,0.0263157894737,0.0263157894737,0.0263157894737,0.0263157894737,0.0263157894737,0.0263157894737,0.0263157894737
Argent Horserider,0.0263157894737,0.0263157894737,0.0263157894737,0.0263157894737,0.0263157894737,0.0263157894737,0.0263157894737,0.0263157894737,0.0263157894737,0.0263157894737,0.0263157894737,0.0263157894737,0.0263157894737,0.0263157894737,0.0263157894737,0.0263157894737,0.0263157894737,0.0263157894737,0.0263157894737,0.0263157894737,0.00367774970871,0.0263157894737,0.0263157894737,0.0263157894737,0.0263157894737,0.0263157894737,0.0263157894737,0.0263157894737,0.0263157894737,0.0263157894737,0.0263157894737,0.0263157894737,0.0263157894737,0.0263157894737,0.0263157894737,0.0263157894737,0.0263157894737
Acidic Swamp Ooze,0.0263157894737,0.0263157894737,0.0263157894737,0.0263157894737,0.0263157894737,0.0263157894737,0.0263157894737,0.0263157894737,0.0263157894737,0.0263157894737,0.0263157894737,0.0263157894737,0.0263157894737,0.0263157894737,0.0263157894737,0.0263157894737,0.0263157894737,0.0263157894737,0.0263157894737,0.0263157894737,0.00366610522279,0.0263157894737,0.0263157894737,0.0263157894737,0.0263157894737,0.0263157894737,0.0263157894737,0.0263157894737,0.0263157894737,0.0263157894737,0.0263157894737,0.0263157894737,0.0263157894737,0.0263157894737,0.0263157894737,0.0263157894737,0.0263157894737
Siphon Soul,0.0263157894737,0.0263157894737,0.0263157894737,0.0263157894737,0.0263157894737,0.0263157894737,0.0263157894737,0.0263157894737,0.0263157894737,0.0263157894737,0.0263157894737,0.0263157894737,0.0263157894737,0.0263157894737,0.0263157894737,0.0263157894737,0.0263157894737,0.0263157894737,0.0263157894737,0.0263157894737,0.0036810942458,0.0263157894737,0.0263157894737,0.0263157894737,0.0263157894737,0.0263157894737,0.0263157894737,0.0263157894737,0.0263157894737,0.0263157894737,0.0263157894737,0.0263157894737,0.0263157894737,0.0263157894737,0.0263157894737,0.0263157894737,0.0263157894737
Bilefin Tidehunter,0.0263157894737,0.0263157894737,0.0263157894737,0.0263157894737,0.0263157894737,0.0263157894737,0.0263157894737,0.0263157894737,0.0263157894737,0.0263157894737,0.0263157894737,0.0263157894737,0.0263157894737,0.0263157894737,0.0263157894737,0.0263157894737,0.0263157894737,0.0263157894737,0.0263157894737,0.0263157894737,0.00369470484824,0.0263157894737,0.0263157894737,0.0263157894737,0.0263157894737,0.0263157894737,0.0263157894737,0.0263157894737,0.0263157894737,0.0263157894737,0.0263157894737,0.0263157894737,0.0263157894737,0.0263157894737,0.0263157894737,0.0263157894737,0.0263157894737
Shadow Bolt,0.0263157894737,0.0263157894737,0.0263157894737,0.0263157894737,0.0263157894737,0.0263157894737,0.0263157894737,0.0263157894737,0.0263157894737,0.0263157894737,0.0263157894737,0.0263157894737,0.0263157894737,0.0263157894737,0.0263157894737,0.0263157894737,0.0263157894737,0.0263157894737,0.0263157894737,0.0263157894737,0.00366081938394,0.0263157894737,0.0263157894737,0.0263157894737,0.0263157894737,0.0263157894737,0.0263157894737,0.0263157894737,0.0263157894737,0.0263157894737,0.0263157894737,0.0263157894737,0.0263157894737,0.0263157894737,0.0263157894737,0.0263157894737,0.0263157894737
Flame Juggler,0.0263157894737,0.0263157894737,0.0263157894737,0.0263157894737,0.0263157894737,0.0263157894737,0.0263157894737,0.0263157894737,0.0263157894737,0.0263157894737,0.0263157894737,0.0263157894737,0.0263157894737,0.0263157894737,0.0263157894737,0.0263157894737,0.0263157894737,0.0263157894737,0.0263157894737,0.0263157894737,0.00368576300878,0.0263157894737,0.0263157894737,0.0263157894737,0.0263157894737,0.0263157894737,0.0263157894737,0.0263157894737,0.0263157894737,0.0263157894737,0.0263157894737,0.0263157894737,0.0263157894737,0.0263157894737,0.0263157894737,0.0263157894737,0.0263157894737
Refreshment Vendor,0.0263157894737,0.0263157894737,0.0263157894737,0.0263157894737,0.0263157894737,0.0263157894737,0.0263157894737,0.0263157894737,0.0263157894737,0.0263157894737,0.0263157894737,0.0263157894737,0.0263157894737,0.0263157894737,0.0263157894737,0.0263157894737,0.0263157894737,0.0263157894737,0.0263157894737,0.0263157894737,0.00368165247824,0.0263157894737,0.0263157894737,0.0263157894737,0.0263157894737,0.0263157894737,0.0263157894737,0.0263157894737,0.0263157894737,0.0263157894737,0.0263157894737,0.0263157894737,0.0263157894737,0.0263157894737,0.0263157894737,0.0263157894737,0.0263157894737
Sea Giant,0.0263157894737,0.0263157894737,0.0263157894737,0.0263157894737,0.0263157894737,0.0263157894737,0.0263157894737,0.0263157894737,0.0263157894737,0.0263157894737,0.0263157894737,0.0263157894737,0.0263157894737,0.0263157894737,0.0263157894737,0.0263157894737,0.0263157894737,0.0263157894737,0.0263157894737,0.0263157894737,0.00360615709505,0.0263157894737,0.0263157894737,0.0263157894737,0.0263157894737,0.0263157894737,0.0263157894737,0.0263157894737,0.0263157894737,0.0263157894737,0.0263157894737,0.0263157894737,0.0263157894737,0.0263157894737,0.0263157894737,0.0263157894737,0.0263157894737
Shadowflame,0.0263157894737,0.0263157894737,0.0263157894737,0.0263157894737,0.0263157894737,0.0263157894737,0.0263157894737,0.0263157894737,0.0263157894737,0.0263157894737,0.0263157894737,0.0263157894737,0.0263157894737,0.0263157894737,0.0263157894737,0.0263157894737,0.0263157894737,0.0263157894737,0.0263157894737,0.0263157894737,0.0036849468963,0.0263157894737,0.0263157894737,0.0263157894737,0.0263157894737,0.0263157894737,0.0263157894737,0.0263157894737,0.0263157894737,0.0263157894737,0.0263157894737,0.0263157894737,0.0263157894737,0.0263157894737,0.0263157894737,0.0263157894737,0.0263157894737
Leeroy Jenkins,0.0263157894737,0.0263157894737,0.0263157894737,0.0263157894737,0.0263157894737,0.0263157894737,0.0263157894737,0.0263157894737,0.0263157894737,0.0263157894737,0.0263157894737,0.0263157894737,0.0263157894737,0.0263157894737,0.0263157894737,0.0263157894737,0.0263157894737,0.0263157894737,0.0263157894737,0.0263157894737,0.00366520327831,0.0263157894737,0.0263157894737,0.0263157894737,0.0263157894737,0.0263157894737,0.0263157894737,0.0263157894737,0.0263157894737,0.0263157894737,0.0263157894737,0.0263157894737,0.0263157894737,0.0263157894737,0.0263157894737,0.0263157894737,0.0263157894737
Earthen Ring Farseer,0.0263157894737,0.0263157894737,0.0263157894737,0.0263157894737,0.0263157894737,0.0263157894737,0.0263157894737,0.0263157894737,0.0263157894737,0.0263157894737,0.0263157894737,0.0263157894737,0.0263157894737,0.0263157894737,0.0263157894737,0.0263157894737,0.0263157894737,0.0263157894737,0.0263157894737,0.0263157894737,0.00366692555963,0.0263157894737,0.0263157894737,0.0263157894737,0.0263157894737,0.0263157894737,0.0263157894737,0.0263157894737,0.0263157894737,0.0263157894737,0.0263157894737,0.0263157894737,0.0263157894737,0.0263157894737,0.0263157894737,0.0263157894737,0.0263157894737
Soulfire,0.0263157894737,0.0263157894737,0.0263157894737,0.0263157894737,0.0263157894737,0.0263157894737,0.0263157894737,0.0263157894737,0.0263157894737,0.0263157894737,0.0263157894737,0.0263157894737,0.0263157894737,0.0263157894737,0.0263157894737,0.0263157894737,0.0263157894737,0.0263157894737,0.0263157894737,0.0263157894737,0.00355352455847,0.0263157894737,0.0263157894737,0.0263157894737,0.0263157894737,0.0263157894737,0.0263157894737,0.0263157894737,0.0263157894737,0.0263157894737,0.0263157894737,0.0263157894737,0.0263157894737,0.0263157894737,0.0263157894737,0.0263157894737,0.0263157894737
Demonwrath,0.0263157894737,0.0263157894737,0.0263157894737,0.0263157894737,0.0263157894737,0.0263157894737,0.0263157894737,0.0263157894737,0.0263157894737,0.0263157894737,0.0263157894737,0.0263157894737,0.0263157894737,0.0263157894737,0.0263157894737,0.0263157894737,0.0263157894737,0.0263157894737,0.0263157894737,0.0263157894737,0.00368572205376,0.0263157894737,0.0263157894737,0.0263157894737,0.0263157894737,0.0263157894737,0.0263157894737,0.0263157894737,0.0263157894737,0.0263157894737,0.0263157894737,0.0263157894737,0.0263157894737,0.0263157894737,0.0263157894737,0.0263157894737,0.0263157894737
Sylvanas Windrunner,0.0263157894737,0.0263157894737,0.0263157894737,0.0263157894737,0.0263157894737,0.0263157894737,0.0263157894737,0.0263157894737,0.0263157894737,0.0263157894737,0.0263157894737,0.0263157894737,0.0263157894737,0.0263157894737,0.0263157894737,0.0263157894737,0.0263157894737,0.0263157894737,0.0263157894737,0.0263157894737,0.00368510295815,0.0263157894737,0.0263157894737,0.0263157894737,0.0263157894737,0.0263157894737,0.0263157894737,0.0263157894737,0.0263157894737,0.0263157894737,0.0263157894737,0.0263157894737,0.0263157894737,0.0263157894737,0.0263157894737,0.0263157894737,0.0263157894737
Dire Wolf Alpha,0.0263157894737,0.0263157894737,0.0263157894737,0.0263157894737,0.0263157894737,0.0263157894737,0.0263157894737,0.0263157894737,0.0263157894737,0.0263157894737,0.0263157894737,0.0263157894737,0.0263157894737,0.0263157894737,0.0263157894737,0.0263157894737,0.0263157894737,0.0263157894737,0.0263157894737,0.0263157894737,0.0033369431535,0.0263157894737,0.0263157894737,0.0263157894737,0.0263157894737,0.0263157894737,0.0263157894737,0.0263157894737,0.0263157894737,0.0263157894737,0.0263157894737,0.0263157894737,0.0263157894737,0.0263157894737,0.0263157894737,0.0263157894737,0.0263157894737
Dark Peddler,0.0263157894737,0.0263157894737,0.0263157894737,0.0263157894737,0.0263157894737,0.0263157894737,0.0263157894737,0.0263157894737,0.0263157894737,0.0263157894737,0.0263157894737,0.0263157894737,0.0263157894737,0.0263157894737,0.0263157894737,0.0263157894737,0.0263157894737,0.0263157894737,0.0263157894737,0.0263157894737,0.868896733025,0.0263157894737,0.0263157894737,0.0263157894737,0.0263157894737,0.0263157894737,0.0263157894737,0.0263157894737,0.0263157894737,0.0263157894737,0.0263157894737,0.0263157894737,0.0263157894737,0.0263157894737,0.0263157894737,0.0263157894737,0.0263157894737
Argent Squire,0.0263157894737,0.0263157894737,0.0263157894737,0.0263157894737,0.0263157894737,0.0263157894737,0.0263157894737,0.0263157894737,0.0263157894737,0.0263157894737,0.0263157894737,0.0263157894737,0.0263157894737,0.0263157894737,0.0263157894737,0.0263157894737,0.0263157894737,0.0263157894737,0.0263157894737,0.0263157894737,0.00343915707074,0.0263157894737,0.0263157894737,0.0263157894737,0.0263157894737,0.0263157894737,0.0263157894737,0.0263157894737,0.0263157894737,0.0263157894737,0.0263157894737,0.0263157894737,0.0263157894737,0.0263157894737,0.0263157894737,0.0263157894737,0.0263157894737
Knife Juggler,0.0263157894737,0.0263157894737,0.0263157894737,0.0263157894737,0.0263157894737,0.0263157894737,0.0263157894737,0.0263157894737,0.0263157894737,0.0263157894737,0.0263157894737,0.0263157894737,0.0263157894737,0.0263157894737,0.0263157894737,0.0263157894737,0.0263157894737,0.0263157894737,0.0263157894737,0.0263157894737,0.00332347950898,0.0263157894737,0.0263157894737,0.0263157894737,0.0263157894737,0.0263157894737,0.0263157894737,0.0263157894737,0.0263157894737,0.0263157894737,0.0263157894737,0.0263157894737,0.0263157894737,0.0263157894737,0.0263157894737,0.0263157894737,0.0263157894737
Sunfury Protector,0.0263157894737,0.0263157894737,0.0263157894737,0.0263157894737,0.0263157894737,0.0263157894737,0.0263157894737,0.0263157894737,0.0263157894737,0.0263157894737,0.0263157894737,0.0263157894737,0.0263157894737,0.0263157894737,0.0263157894737,0.0263157894737,0.0263157894737,0.0263157894737,0.0263157894737,0.0263157894737,0.00369239469537,0.0263157894737,0.0263157894737,0.0263157894737,0.0263157894737,0.0263157894737,0.0263157894737,0.0263157894737,0.0263157894737,0.0263157894737,0.0263157894737,0.0263157894737,0.0263157894737,0.0263157894737,0.0263157894737,0.0263157894737,0.0263157894737
Darkshire Councilman,0.0263157894737,0.0263157894737,0.0263157894737,0.0263157894737,0.0263157894737,0.0263157894737,0.0263157894737,0.0263157894737,0.0263157894737,0.0263157894737,0.0263157894737,0.0263157894737,0.0263157894737,0.0263157894737,0.0263157894737,0.0263157894737,0.0263157894737,0.0263157894737,0.0263157894737,0.0263157894737,0.00333080888854,0.0263157894737,0.0263157894737,0.0263157894737,0.0263157894737,0.0263157894737,0.0263157894737,0.0263157894737,0.0263157894737,0.0263157894737,0.0263157894737,0.0263157894737,0.0263157894737,0.0263157894737,0.0263157894737,0.0263157894737,0.0263157894737
Abusive Sergeant,0.0263157894737,0.0263157894737,0.0263157894737,0.0263157894737,0.0263157894737,0.0263157894737,0.0263157894737,0.0263157894737,0.0263157894737,0.0263157894737,0.0263157894737,0.0263157894737,0.0263157894737,0.0263157894737,0.0263157894737,0.0263157894737,0.0263157894737,0.0263157894737,0.0263157894737,0.0263157894737,0.00328501252854,0.0263157894737,0.0263157894737,0.0263157894737,0.0263157894737,0.0263157894737,0.0263157894737,0.0263157894737,0.0263157894737,0.0263157894737,0.0263157894737,0.0263157894737,0.0263157894737,0.0263157894737,0.0263157894737,0.0263157894737,0.0263157894737
Power Overwhelming,0.0263157894737,0.0263157894737,0.0263157894737,0.0263157894737,0.0263157894737,0.0263157894737,0.0263157894737,0.0263157894737,0.0263157894737,0.0263157894737,0.0263157894737,0.0263157894737,0.0263157894737,0.0263157894737,0.0263157894737,0.0263157894737,0.0263157894737,0.0263157894737,0.0263157894737,0.0263157894737,0.00335962725674,0.0263157894737,0.0263157894737,0.0263157894737,0.0263157894737,0.0263157894737,0.0263157894737,0.0263157894737,0.0263157894737,0.0263157894737,0.0263157894737,0.0263157894737,0.0263157894737,0.0263157894737,0.0263157894737,0.0263157894737,0.0263157894737
Forbidden Ritual,0.0263157894737,0.0263157894737,0.0263157894737,0.0263157894737,0.0263157894737,0.0263157894737,0.0263157894737,0.0263157894737,0.0263157894737,0.0263157894737,0.0263157894737,0.0263157894737,0.0263157894737,0.0263157894737,0.0263157894737,0.0263157894737,0.0263157894737,0.0263157894737,0.0263157894737,0.0263157894737,0.00343052521227,0.0263157894737,0.0263157894737,0.0263157894737,0.0263157894737,0.0263157894737,0.0263157894737,0.0263157894737,0.0263157894737,0.0263157894737,0.0263157894737,0.0263157894737,0.0263157894737,0.0263157894737,0.0263157894737,0.0263157894737,0.0263157894737
Brann Bronzebeard,0.0263157894737,0.0263157894737,0.0263157894737,0.0263157894737,0.0263157894737,0.0263157894737,0.0263157894737,0.0263157894737,0.0263157894737,0.0263157894737,0.0263157894737,0.0263157894737,0.0263157894737,0.0263157894737,0.0263157894737,0.0263157894737,0.0263157894737,0.0263157894737,0.0263157894737,0.0263157894737,0.00363260955193,0.0263157894737,0.0263157894737,0.0263157894737,0.0263157894737,0.0263157894737,0.0263157894737,0.0263157894737,0.0263157894737,0.0263157894737,0.0263157894737,0.0263157894737,0.0263157894737,0.0263157894737,0.0263157894737,0.0263157894737,0.0263157894737
Possessed Villager,0.0263157894737,0.0263157894737,0.0263157894737,0.0263157894737,0.0263157894737,0.0263157894737,0.0263157894737,0.0263157894737,0.0263157894737,0.0263157894737,0.0263157894737,0.0263157894737,0.0263157894737,0.0263157894737,0.0263157894737,0.0263157894737,0.0263157894737,0.0263157894737,0.0263157894737,0.0263157894737,0.00320890164458,0.0263157894737,0.0263157894737,0.0263157894737,0.0263157894737,0.0263157894737,0.0263157894737,0.0263157894737,0.0263157894737,0.0263157894737,0.0263157894737,0.0263157894737,0.0263157894737,0.0263157894737,0.0263157894737,0.0263157894737,0.0263157894737
Imp Gang Boss,0.0263157894737,0.0263157894737,0.0263157894737,0.0263157894737,0.0263157894737,0.0263157894737,0.0263157894737,0.0263157894737,0.0263157894737,0.0263157894737,0.0263157894737,0.0263157894737,0.0263157894737,0.0263157894737,0.0263157894737,0.0263157894737,0.0263157894737,0.0263157894737,0.0263157894737,0.0263157894737,0.00325439298618,0.0263157894737,0.0263157894737,0.0263157894737,0.0263157894737,0.0263157894737,0.0263157894737,0.0263157894737,0.0263157894737,0.0263157894737,0.0263157894737,0.0263157894737,0.0263157894737,0.0263157894737,0.0263157894737,0.0263157894737,0.0263157894737
Hellfire,0.0263157894737,0.0263157894737,0.0263157894737,0.0263157894737,0.0263157894737,0.0263157894737,0.0263157894737,0.0263157894737,0.0263157894737,0.0263157894737,0.0263157894737,0.0263157894737,0.0263157894737,0.0263157894737,0.0263157894737,0.0263157894737,0.0263157894737,0.0263157894737,0.0263157894737,0.0263157894737,0.0036646178295,0.0263157894737,0.0263157894737,0.0263157894737,0.0263157894737,0.0263157894737,0.0263157894737,0.0263157894737,0.0263157894737,0.0263157894737,0.0263157894737,0.0263157894737,0.0263157894737,0.0263157894737,0.0263157894737,0.0263157894737,0.0263157894737
Emperor Thaurissan,0.0263157894737,0.0263157894737,0.0263157894737,0.0263157894737,0.0263157894737,0.0263157894737,0.0263157894737,0.0263157894737,0.0263157894737,0.0263157894737,0.0263157894737,0.0263157894737,0.0263157894737,0.0263157894737,0.0263157894737,0.0263157894737,0.0263157894737,0.0263157894737,0.0263157894737,0.0263157894737,0.00367973065007,0.0263157894737,0.0263157894737,0.0263157894737,0.0263157894737,0.0263157894737,0.0263157894737,0.0263157894737,0.0263157894737,0.0263157894737,0.0263157894737,0.0263157894737,0.0263157894737,0.0263157894737,0.0263157894737,0.0263157894737,0.0263157894737
Reno Jackson,0.0263157894737,0.0263157894737,0.0263157894737,0.0263157894737,0.0263157894737,0.0263157894737,0.0263157894737,0.0263157894737,0.0263157894737,0.0263157894737,0.0263157894737,0.0263157894737,0.0263157894737,0.0263157894737,0.0263157894737,0.0263157894737,0.0263157894737,0.0263157894737,0.0263157894737,0.0263157894737,0.00367665094894,0.0263157894737,0.0263157894737,0.0263157894737,0.0263157894737,0.0263157894737,0.0263157894737,0.0263157894737,0.0263157894737,0.0263157894737,0.0263157894737,0.0263157894737,0.0263157894737,0.0263157894737,0.0263157894737,0.0263157894737,0.0263157894737
Twilight Drake,0.0263157894737,0.0263157894737,0.0263157894737,0.0263157894737,0.0263157894737,0.0263157894737,0.0263157894737,0.0263157894737,0.0263157894737,0.0263157894737,0.0263157894737,0.0263157894737,0.0263157894737,0.0263157894737,0.0263157894737,0.0263157894737,0.0263157894737,0.0263157894737,0.0263157894737,0.0263157894737,0.00366176972549,0.0263157894737,0.0263157894737,0.0263157894737,0.0263157894737,0.0263157894737,0.0263157894737,0.0263157894737,0.0263157894737,0.0263157894737,0.0263157894737,0.0263157894737,0.0263157894737,0.0263157894737,0.0263157894737,0.0263157894737,0.0263157894737
Doomguard,0.0263157894737,0.0263157894737,0.0263157894737,0.0263157894737,0.0263157894737,0.0263157894737,0.0263157894737,0.0263157894737,0.0263157894737,0.0263157894737,0.0263157894737,0.0263157894737,0.0263157894737,0.0263157894737,0.0263157894737,0.0263157894737,0.0263157894737,0.0263157894737,0.0263157894737,0.0263157894737,0.00354431930536,0.0263157894737,0.0263157894737,0.0263157894737,0.0263157894737,0.0263157894737,0.0263157894737,0.0263157894737,0.0263157894737,0.0263157894737,0.0263157894737,0.0263157894737,0.0263157894737,0.0263157894737,0.0263157894737,0.0263157894737,0.0263157894737
Crazed Alchemist,0.0263157894737,0.0263157894737,0.0263157894737,0.0263157894737,0.0263157894737,0.0263157894737,0.0263157894737,0.0263157894737,0.0263157894737,0.0263157894737,0.0263157894737,0.0263157894737,0.0263157894737,0.0263157894737,0.0263157894737,0.0263157894737,0.0263157894737,0.0263157894737,0.0263157894737,0.0263157894737,0.00365873403435,0.0263157894737,0.0263157894737,0.0263157894737,0.0263157894737,0.0263157894737,0.0263157894737,0.0263157894737,0.0263157894737,0.0263157894737,0.0263157894737,0.0263157894737,0.0263157894737,0.0263157894737,0.0263157894737,0.0263157894737,0.0263157894737
